<?xml version="1.0" encoding="UTF-8"?>
<svg width="13px" height="14px" viewBox="0 0 13 14" version="1.1" xmlns="http://www.w3.org/2000/svg" xmlns:xlink="http://www.w3.org/1999/xlink">
    <!-- Generator: sketchtool 51.2 (57519) - http://www.bohemiancoding.com/sketch -->
    <title>08FC1A81-7825-4075-9752-A93C3ECDCB01</title>
    <desc>Created with sketchtool.</desc>
    <defs></defs>
    <g id="Page-1" stroke="none" stroke-width="1" fill="none" fill-rule="evenodd">
        <g id="6.1-Инфраструктура-комплекса" transform="translate(-709.000000, -389.000000)" fill="#FFFFFF" fill-rule="nonzero">
            <g id="1" transform="translate(85.000000, 85.000000)">
                <g id="polubird_new_color">
                    <g id="Group-5-Copy-6" transform="translate(611.000000, 292.000000)">
                        <path d="M25.191384,16.7582159 C25.191384,18.9175113 24.0449371,20.3122826 22.3061232,21.0383837 L25.650017,25.91119 L21.3695777,25.91119 L18.5416122,21.6500301 L16.6879364,21.6500301 L16.6879364,25.91119 L13,25.91119 L13,12 L19.5350456,12 C21.5798864,12 23.0322243,12.5350719 23.9683625,13.4906253 C24.7709025,14.2738858 25.191384,15.3443011 25.191384,16.7009208 L25.191384,16.7582159 Z M21.4843039,16.9873967 L21.4843039,16.9492452 C21.4843039,15.8026626 20.6624845,15.2102955 19.3250085,15.2102955 L16.6879364,15.2102955 L16.6879364,18.7072027 L19.36316,18.7072027 C20.7009076,18.7072027 21.4843039,18.0193889 21.4843039,16.9873967 Z" id="Path"></path>
                    </g>
                </g>
            </g>
        </g>
    </g>
</svg>