<?xml version="1.0" encoding="UTF-8"?>
<svg width="18px" height="13px" viewBox="0 0 18 13" version="1.1" xmlns="http://www.w3.org/2000/svg" xmlns:xlink="http://www.w3.org/1999/xlink">
    <!-- Generator: sketchtool 52.4 (67378) - http://www.bohemiancoding.com/sketch -->
    <title>B1CBF51B-D772-4A9D-B03F-381E14B749D8</title>
    <desc>Created with sketchtool.</desc>
    <g id="Page-1" stroke="none" stroke-width="1" fill="none" fill-rule="evenodd">
        <g id="7.1-Генплан_new" transform="translate(-898.000000, -578.000000)" fill="#FFFFFF">
            <g id="1" transform="translate(85.000000, 85.000000)">
                <g id="polubird_new_color">
                    <g id="Group-5-Copy" transform="translate(803.000000, 480.000000)">
                        <g id="wind" transform="translate(10.000000, 13.000000)">
                            <path d="M0.245355469,6.86183203 C1.31016797,7.77515625 2.51701172,8.81040234 4.85142187,8.81040234 C7.18590234,8.81036719 8.39281641,7.77515625 9.45766406,6.86183203 C10.4646797,5.99811328 11.334375,5.25213281 13.1483672,5.25213281 C14.9623945,5.25213281 15.8320898,5.99811328 16.8390703,6.86183203 C17.1338555,7.11464062 17.5777383,7.08067969 17.8305469,6.78592969 C18.0833555,6.49114453 18.0493945,6.04726172 17.7546094,5.79445312 C16.6897617,4.88112891 15.4828477,3.84588281 13.1483672,3.84588281 C10.8138867,3.84588281 9.60697266,4.88109375 8.542125,5.79445312 C7.53510937,6.65817187 6.66541406,7.40415234 4.85142187,7.40415234 C3.03746484,7.40415234 2.167875,6.65820703 1.16092969,5.79445312 C0.866179687,5.54164453 0.422296875,5.57557031 0.169453125,5.87035547 C-0.083390625,6.16510547 -0.0493945312,6.60902344 0.245355469,6.86183203 Z" id="Path"></path>
                            <path d="M0.245355469,3.01594922 C1.31013281,3.92930859 2.51697656,4.96451953 4.85142187,4.96451953 C7.18590234,4.96451953 8.39281641,3.92930859 9.45766406,3.01594922 C10.4646797,2.15223047 11.3343398,1.40625 13.1483672,1.40625 C14.9623242,1.40625 15.8320195,2.15219531 16.8390703,3.01594922 C17.1338555,3.26882813 17.5777031,3.23476172 17.8305117,2.93997656 C18.0833555,2.64522656 18.0492891,2.20127344 17.7545391,1.9485 C16.6896914,1.03514063 15.4827773,0 13.1483672,0 C10.8138867,0 9.60697266,1.03521094 8.542125,1.94857031 C7.53510937,2.81228906 6.66541406,3.55826953 4.85142187,3.55826953 C3.0375,3.55826953 2.167875,2.81232422 1.16092969,1.94857031 C0.866179687,1.69572656 0.422261719,1.7296875 0.169453125,2.02447266 C-0.083390625,2.31922266 -0.0493945312,2.76314063 0.245355469,3.01594922 Z" id="Path"></path>
                            <path d="M17.7546094,9.64030078 C16.6897617,8.72697656 15.4828477,7.69173047 13.1483672,7.69173047 C10.8138867,7.69173047 9.60697266,8.72694141 8.542125,9.64030078 C7.53510938,10.5040195 6.66541406,11.25 4.85142188,11.25 C3.03757031,11.25 2.16791016,10.5040547 1.16096484,9.64037109 L1.16089453,9.64030078 C0.866144531,9.3875625 0.422296875,9.42152344 0.169453125,9.71623828 C-0.0833554687,10.0109883 -0.049359375,10.4549063 0.245390625,10.7077148 C1.31020313,11.6210742 2.51708203,12.65625 4.85142188,12.65625 C7.18590234,12.65625 8.39281641,11.6210391 9.45766406,10.7076797 C10.4646797,9.84396094 11.334375,9.09798047 13.1483672,9.09798047 C14.9623945,9.09798047 15.8320898,9.84396094 16.8390703,10.7076797 C17.1338555,10.9604883 17.5777383,10.9265273 17.8305469,10.6317773 C18.0833555,10.3369922 18.0493945,9.89310937 17.7546094,9.64030078 Z" id="Path"></path>
                        </g>
                    </g>
                </g>
            </g>
        </g>
    </g>
</svg>