<?xml version="1.0" encoding="iso-8859-1"?>
<!-- Generator: Adobe Illustrator 22.0.1, SVG Export Plug-In . SVG Version: 6.00 Build 0)  -->
<svg version="1.1" xmlns="http://www.w3.org/2000/svg" xmlns:xlink="http://www.w3.org/1999/xlink" x="0px" y="0px" width="328px"
	 height="224px" viewBox="0 0 328 224" style="enable-background:new 0 0 328 224;" xml:space="preserve">
<g id="_x33_k_x5F_1fl_x5F_1s_x5F_2">
	<g id="m_&#x43A;&#x43E;&#x43F;&#x438;&#x44F;_17">
		<g>
			
				<rect x="287.5" y="20.5" transform="matrix(4.480220e-11 1 -1 4.480220e-11 341 -280)" style="fill:none;stroke:#BD8494;stroke-miterlimit:10;" width="46" height="20"/>
			<path style="fill:none;stroke:#BD8494;stroke-miterlimit:10;" d="M317.5,44.5v-30c0-2.209-1.791-4-4-4h-6c-2.209,0-4,1.791-4,4
				v30c0,3.314,2.686,6,6,6h2C314.814,50.5,317.5,47.814,317.5,44.5z"/>
			<circle style="fill:none;stroke:#BD8494;stroke-miterlimit:10;" cx="310.5" cy="14.5" r="1"/>
		</g>
		<g>
			<circle style="fill:none;stroke:#BD8494;stroke-miterlimit:10;" cx="281.5" cy="46.5" r="1"/>
			<path style="fill:none;stroke:#BD8494;stroke-miterlimit:10;" d="M272.5,43.5v10h18v-10c0-2.209-1.791-4-4-4h-10
				C274.291,39.5,272.5,41.291,272.5,43.5z"/>
			<path style="fill:none;stroke:#BD8494;stroke-miterlimit:10;" d="M287.5,46.5v4h-12v-4c0-2.209,1.791-4,4-4h4
				C285.709,42.5,287.5,44.291,287.5,46.5z"/>
		</g>
		<g>
			<path style="fill:none;stroke:#BD8494;stroke-miterlimit:10;" d="M305.5,87.5h4v-12h-4c-1.105,0-2,0.895-2,2v8
				C303.5,86.605,304.395,87.5,305.5,87.5z"/>
			<path style="fill:none;stroke:#BD8494;stroke-miterlimit:10;" d="M294.5,86.5h6c1.657,0,3-1.343,3-3v-4c0-1.657-1.343-3-3-3h-6
				c-2.761,0-5,2.239-5,5v0C289.5,84.261,291.739,86.5,294.5,86.5z"/>
			<circle style="fill:none;stroke:#BD8494;stroke-miterlimit:10;" cx="306.5" cy="81.5" r="1"/>
		</g>
		<g>
			<circle style="fill:none;stroke:#BD8494;stroke-miterlimit:10;" cx="281.5" cy="67.5" r="1"/>
			<path style="fill:none;stroke:#BD8494;stroke-miterlimit:10;" d="M290.5,70.5v-10h-18v10c0,2.209,1.791,4,4,4h10
				C288.709,74.5,290.5,72.709,290.5,70.5z"/>
			<path style="fill:none;stroke:#BD8494;stroke-miterlimit:10;" d="M275.5,67.5v-4h12v4c0,2.209-1.791,4-4,4h-4
				C277.291,71.5,275.5,69.709,275.5,67.5z"/>
		</g>
		<g>
			
				<rect x="272.5" y="7.5" transform="matrix(-1 4.445143e-11 -4.445143e-11 -1 561 31)" style="fill:none;stroke:#BD8494;stroke-miterlimit:10;" width="16" height="16"/>
			<circle style="fill:none;stroke:#BD8494;stroke-miterlimit:10;" cx="280.5" cy="15.5" r="5"/>
		</g>
		<g>
			<rect x="302.5" y="141.5" style="fill:none;stroke:#BD8494;stroke-miterlimit:10;" width="18" height="18"/>
			<circle style="fill:none;stroke:#BD8494;stroke-miterlimit:10;" cx="315" cy="154" r="2.5"/>
			<circle style="fill:none;stroke:#BD8494;stroke-miterlimit:10;" cx="308" cy="154" r="2.5"/>
			<circle style="fill:none;stroke:#BD8494;stroke-miterlimit:10;" cx="315" cy="147" r="2.5"/>
			<circle style="fill:none;stroke:#BD8494;stroke-miterlimit:10;" cx="308" cy="147" r="2.5"/>
		</g>
		<g>
			<rect x="302.5" y="105.5" style="fill:none;stroke:#BD8494;stroke-miterlimit:10;" width="18" height="18"/>
			<path style="fill:none;stroke:#BD8494;stroke-miterlimit:10;" d="M315.5,108.5h-8c-1.105,0-2,0.895-2,2v8c0,1.105,0.895,2,2,2h8
				c1.105,0,2-0.895,2-2v-8C317.5,109.395,316.605,108.5,315.5,108.5z"/>
			<circle style="fill:none;stroke:#BD8494;stroke-miterlimit:10;" cx="313.5" cy="112.5" r="1"/>
		</g>
		
			<rect x="302.5" y="123.5" transform="matrix(-1 4.496924e-11 -4.496924e-11 -1 623 265)" style="fill:none;stroke:#BD8494;stroke-miterlimit:10;" width="18" height="18"/>
	</g>
	<g id="d_&#x43A;&#x43E;&#x43F;&#x438;&#x44F;_17">
		<line style="fill:none;stroke:#81818C;stroke-miterlimit:10;" x1="256.5" y1="121.5" x2="238.5" y2="103.5"/>
		<line style="fill:none;stroke:#81818C;stroke-miterlimit:10;" x1="267.5" y1="90.5" x2="249.5" y2="72.5"/>
		<line style="fill:none;stroke:#81818C;stroke-miterlimit:10;" x1="210.5" y1="85.5" x2="228.5" y2="67.5"/>
		<line style="fill:none;stroke:#81818C;stroke-miterlimit:10;" x1="249.5" y1="39.5" x2="267.5" y2="21.5"/>
		<line style="fill:none;stroke:#81818C;stroke-miterlimit:10;" x1="132.5" y1="58.5" x2="150.5" y2="40.5"/>
		<line style="fill:none;stroke:#81818C;stroke-miterlimit:10;" x1="248.5" y1="23.5" x2="230.5" y2="5.5"/>
		<line style="fill:none;stroke:#81818C;stroke-miterlimit:10;" x1="110.5" y1="154.5" x2="92.5" y2="136.5"/>
	</g>
	<g id="s_&#x43A;&#x43E;&#x43F;&#x438;&#x44F;_17">
		<path style="fill:#81818C;" d="M258,0v6h9v16h4V6h51v49h-51V41h-4v33h4V59h40v33h-40v-2h-4v10h-8v4h63v108h-90V104h7v-4h-7v-8h-4
			v120h-95V64h95v4h4v-8h-99v-2h-4v96h-19v7h11v30H12v-30h74v-7H12V6h117v28h4V6h98V0H0v203h121v21h207V0H258z M54,156h30v3H54V156z
			 M2,91V24h3v67H2z M7,91V24h3v67H7z M109,201H24v-3h85V201z M109,196H24v-3h85V196z M211,222h-67v-3h67V222z M211,217h-67v-3h67
			V217z M299,222h-50v-3h50V222z M299,217h-50v-3h50V217z M271,100v-4h43v4H271z M318,100v-8h-3V59h7v41H318z"/>
	</g>
	<g id="text_&#x43A;&#x43E;&#x43F;&#x438;&#x44F;_17">
		<g>
			<path style="fill:#BD8494;" d="M173.175,30.905l-1.979,0.615l-0.285-0.96l2.565-0.885h0.869V40.25h-1.17V30.905z"/>
			<path style="fill:#BD8494;" d="M178.17,30.905l-1.979,0.615l-0.285-0.96l2.565-0.885h0.869V40.25h-1.17V30.905z"/>
			<path style="fill:#BD8494;" d="M181.636,38.676h1.38v1.574h-1.38V38.676z"/>
			<path style="fill:#BD8494;" d="M184.5,39.335l3.811-3.36c1.619-1.424,2.189-2.25,2.189-3.299c0-1.23-0.975-2.01-2.115-2.01
				c-1.199,0-1.979,0.629-2.819,1.799l-0.87-0.629c0.945-1.41,1.935-2.235,3.779-2.235c1.891,0,3.255,1.26,3.255,2.999
				c0,1.531-0.824,2.461-2.654,4.08l-2.805,2.49h5.564v1.08H184.5V39.335z"/>
		</g>
		<g>
			<path style="fill:#BD8494;" d="M171.735,138.405l-1.979,0.615l-0.285-0.96l2.565-0.885h0.869v10.574h-1.17V138.405z"/>
			<path style="fill:#BD8494;" d="M180.841,138.33h-5.775v-1.08h7.125v0.886l-4.77,9.614h-1.32L180.841,138.33z"/>
			<path style="fill:#BD8494;" d="M182.266,146.175h1.38v1.575h-1.38V146.175z"/>
			<path style="fill:#BD8494;" d="M185.13,146.835l3.811-3.359c1.619-1.426,2.189-2.25,2.189-3.3c0-1.23-0.975-2.011-2.115-2.011
				c-1.199,0-1.979,0.63-2.819,1.8l-0.87-0.63c0.945-1.409,1.935-2.234,3.779-2.234c1.891,0,3.255,1.26,3.255,3
				c0,1.529-0.824,2.46-2.654,4.079l-2.805,2.49h5.564v1.08h-7.335V146.835z"/>
		</g>
		<g>
			<path style="fill:#BD8494;" d="M270.915,78.448l-1.979,0.615l-0.285-0.96l2.565-0.885h0.869v10.574h-1.17V78.448z"/>
			<path style="fill:#BD8494;" d="M274.381,86.219h1.38v1.574h-1.38V86.219z"/>
			<path style="fill:#BD8494;" d="M277.44,82.813c0-3.194,1.62-5.699,4.364-5.699c1.261,0,2.19,0.45,3.105,1.2l-0.69,0.915
				c-0.779-0.66-1.515-1.035-2.475-1.035c-1.89,0-3.075,1.904-3.075,4.59v0.045c0.57-0.84,1.455-1.605,2.985-1.605
				c1.95,0,3.63,1.261,3.63,3.256c0,2.024-1.635,3.494-3.765,3.494C279.165,87.973,277.44,86.548,277.44,82.813z M284.07,84.493
				c0-1.29-1.05-2.25-2.565-2.25c-1.574,0-2.625,1.125-2.625,2.325c0,1.334,1.11,2.354,2.655,2.354S284.07,85.857,284.07,84.493z"/>
		</g>
		<g>
			<path style="fill:#BD8494;" d="M259.221,156.905l-1.979,0.615l-0.285-0.96l2.565-0.885h0.869v10.574h-1.17V156.905z"/>
			<path style="fill:#BD8494;" d="M262.251,165.335l3.811-3.36c1.619-1.424,2.189-2.25,2.189-3.299c0-1.23-0.975-2.01-2.115-2.01
				c-1.199,0-1.979,0.629-2.819,1.799l-0.87-0.629c0.945-1.41,1.935-2.235,3.779-2.235c1.891,0,3.255,1.26,3.255,2.999
				c0,1.531-0.824,2.461-2.654,4.08l-2.805,2.49h5.564v1.08h-7.335V165.335z"/>
			<path style="fill:#BD8494;" d="M271.297,164.676h1.38v1.574h-1.38V164.676z"/>
			<path style="fill:#BD8494;" d="M274.222,163.4c0-1.245,0.899-2.131,2.159-2.58c-0.975-0.45-1.8-1.2-1.8-2.445
				c0-1.619,1.665-2.774,3.585-2.774s3.585,1.155,3.585,2.805c0,1.215-0.825,1.965-1.8,2.415c1.245,0.465,2.16,1.32,2.16,2.595
				c0,1.785-1.71,2.985-3.945,2.985C275.932,166.4,274.222,165.186,274.222,163.4z M280.911,163.37c0-1.17-1.215-1.995-2.745-1.995
				c-1.529,0-2.745,0.825-2.745,2.025c0,1.064,1.021,1.965,2.745,1.965C279.892,165.365,280.911,164.465,280.911,163.37z
				 M280.566,158.45c0-1.034-1.035-1.815-2.4-1.815c-1.364,0-2.399,0.766-2.399,1.846c0,1.14,1.064,1.92,2.399,1.92
				S280.566,159.62,280.566,158.45z"/>
		</g>
		<g>
			<path style="fill:#BD8494;" d="M64.125,179.26h-5.534l-0.301-0.854l5.94-7.229h1.035v7.094H66.9v0.99h-1.635v2.49h-1.141V179.26z
				 M64.125,178.27v-5.414l-4.409,5.414H64.125z"/>
			<path style="fill:#BD8494;" d="M68.49,180.176h1.38v1.574h-1.38V180.176z"/>
			<path style="fill:#BD8494;" d="M71.819,180.641l0.69-0.916c0.854,0.75,1.649,1.125,2.58,1.125c1.859,0,3.119-1.859,3.119-4.469
				v-0.136c-0.569,0.915-1.515,1.681-2.97,1.681c-2.159,0-3.659-1.365-3.659-3.285c0-1.995,1.545-3.57,3.779-3.57
				c2.311,0,4.065,1.395,4.065,5.175c0,3.33-1.771,5.685-4.365,5.685C73.694,181.93,72.705,181.375,71.819,180.641z M77.984,174.506
				c0-1.336-1.095-2.385-2.67-2.385s-2.52,1.154-2.52,2.489s1.05,2.295,2.58,2.295C76.979,176.905,77.984,175.735,77.984,174.506z"
				/>
		</g>
		<g>
			<path style="fill:#BD8494;" d="M273.936,35.338l0.854-0.765c0.811,0.99,1.785,1.56,3.075,1.56c1.275,0,2.295-0.81,2.295-2.069
				c0-1.306-1.215-2.024-2.939-2.024h-0.676l-0.239-0.705l3.314-3.735h-5.13v-1.065h6.705v0.871l-3.3,3.659
				c1.83,0.149,3.465,1.035,3.465,2.985c0,1.875-1.561,3.164-3.51,3.164C276.096,37.213,274.79,36.448,273.936,35.338z"/>
			<path style="fill:#BD8494;" d="M283.161,35.459h1.38v1.574h-1.38V35.459z"/>
			<path style="fill:#BD8494;" d="M287.24,27.688l-1.979,0.615l-0.285-0.96l2.565-0.885h0.869v10.574h-1.17V27.688z"/>
		</g>
		<g>
			<path style="fill:#BD8494;" d="M53.235,79.335l3.811-3.36c1.619-1.424,2.189-2.25,2.189-3.299c0-1.23-0.975-2.01-2.115-2.01
				c-1.199,0-1.979,0.629-2.819,1.799l-0.87-0.629c0.945-1.41,1.935-2.235,3.779-2.235c1.891,0,3.255,1.26,3.255,2.999
				c0,1.531-0.824,2.461-2.654,4.08l-2.805,2.49h5.564v1.08h-7.335V79.335z"/>
			<path style="fill:#BD8494;" d="M63.811,70.905l-1.979,0.615l-0.285-0.96l2.565-0.885h0.869V80.25h-1.17V70.905z"/>
			<path style="fill:#BD8494;" d="M67.276,78.676h1.38v1.574h-1.38V78.676z"/>
			<path style="fill:#BD8494;" d="M70.336,75.27c0-3.194,1.62-5.699,4.365-5.699c1.26,0,2.189,0.45,3.104,1.2l-0.69,0.915
				c-0.779-0.66-1.515-1.035-2.475-1.035c-1.89,0-3.075,1.904-3.075,4.59v0.045c0.57-0.84,1.455-1.605,2.985-1.605
				c1.95,0,3.63,1.261,3.63,3.256c0,2.024-1.635,3.494-3.765,3.494C72.061,80.43,70.336,79.005,70.336,75.27z M76.966,76.95
				c0-1.29-1.05-2.25-2.565-2.25c-1.574,0-2.625,1.125-2.625,2.325c0,1.334,1.11,2.354,2.655,2.354S76.966,78.314,76.966,76.95z"/>
		</g>
	</g>
</g>
<g id="&#x421;&#x43B;&#x43E;&#x439;_1">
</g>
</svg>
