<svg class="SvgWrap_svg SvgWrap_svg-house"  xmlns="http://www.w3.org/2000/svg" width="2120" height="1270" viewBox="0 0 2120 1270">
    <a data-floor='{"floor": "8", "flats": "4"}' class="Genplan_poligonLink Genplan_poligonLink-filtered" xlink:href="#">
        <g id="_1k_1fl" data-name="1k_1fl" opacity="0.7">
            <path class="SvgWrap_genplanPath" d="M1420.494,729.854l1.229-.217A7.117,7.117,0,0,1,1420.494,729.854ZM1515,819c.612-.18,1.634-1.674,4-3v-2a12.662,12.662,0,0,0-4-1c-1.506,1.875-2.778,1.7-4,4h-1l1,3A14.124,14.124,0,0,0,1515,819Zm-91-53c1.355,1.6.611,1.158,3,2C1425.528,765.51,1427.245,766.828,1424,766Zm1,7c.784-.621.251-.032,0-1v-4c-1.884,3.213-8.313-4.175-13-5,.319,9.183,7.267,9.03,13,11Zm71,49c-.4-2.054-.248-1.927-1-3V800c-2.41.931-1.576,1.094-4,2a12.662,12.662,0,0,1,1,4h-3v1h-1v4h3a16.935,16.935,0,0,0,2,6c-4.712,1.832-10.191,1.014-16,0v1h-1c1.253,4.5.7,1.4,0,7,1.726.645.979.2,2,1,3.539-.648,3.385-.685,5-3,2.562,1.02,2.978,1.129,4,2,2.054-.4,1.927-.248,3-1,.918-1.916.4-.734,0-3,2.319.227,2.821.2,4,1Zm-26,5a8.383,8.383,0,0,0,1-3c-5.208-.135-12.739-4.285-13-4h-2c1.489,2.236,2.073,3.053,5,4-.952,2.308-1.873,2.877-3,5-2.054-.4-1.927-.248-3-1-3.954.945-4.553,2.807-6,6h-1v1l19-4s.542-1.544-2-3C1466.437,825.611,1470,827,1470,827Zm-47-50,1-3h-2l-1,3Zm-7,0c-.931-2.41-1.094-1.576-2-4h-3c-.2,2.227.935.879-1,2,.645,1.726.2.979,1,2C1412.808,777.994,1412.8,777.257,1416,777Zm9,29s7.425.037,10,0c-2.9-6.131-3.917-.606-4-9a11.568,11.568,0,0,0-3,2c.259.97-.3.445,1,1v1c-1.726-.645-.979-.2-2-1h-2c.379-2.831.933-2.1,0-4-2.123,2.858-.136,3.125-4,4C1422.213,802.84,1422.631,804.322,1425,806Zm15-72v-1h-1c-1.51-1.917-2.16-2.285-5-3C1435.557,734.025,1433.956,734.12,1440,734Zm-18,45c-2.826-2.012-2.438.966-4-2-2.49,1.472-1.172-.245-2,3a14.124,14.124,0,0,1,4,1A6.107,6.107,0,0,1,1422,779Zm-14-4h2c-.3-3.19-.888-3.2,0-5-2.671-4.911-5.5-2.778-10-2v3C1404.047,771.435,1406.506,771.9,1408,775Zm-17,38c.872,3.217-.542,1.544,2,3,3.17,1.067,1.429-.923,4-2,.6-.253,4.1,1.816,6,2v-6c-3.642.53-6.059-.229-9,2Zm280-25c-.284-2.75-.7-7.08-2-9-1.469,2.895-.976,2.873-2,6,.872.74,1.128,1.26,2,2v1Zm-8-15c-.839,2.322-1.858,4.814-4,6l2,3a14.124,14.124,0,0,0,4-1c1.144,1.357.507-.316,3-1C1666.554,776.456,1666.22,774.826,1663,773Zm-226-46c.055-.033.1-.056.15-.085l-.15.026Zm199,57h2v-9c-3.553-.865-8.946-2.984-12-1-3.383,1.444-2.123,2.433-4,5-1.075.758-.924.628-3,1-.4,2.054-.248,1.927-1,3,.645,1.726.2.979,1,2C1622.864,781.218,1631.642,787.5,1636,784Zm-300,64c-1.226-2.255-1.727-2-4-3-.645,1.726-.2.979-1,2-.856.662-3.14,1.351-4,2h1l-1,2c4.519-.574,2.983-.569,6,2A18.711,18.711,0,0,1,1336,848Zm-9-4h3v-1h-1v-2C1326.51,842.472,1327.828,840.755,1327,844Zm289-55h4c-1.162-2.223-1.448-1.5-3-3C1616.242,787.076,1616.372,786.924,1616,789Zm-120-7h3v-2c-1.726-.645-.979-.2-2-1C1496.242,780.076,1496.372,779.924,1496,782Zm11,39h3c-1.472-2.49.245-1.172-3-2Zm5-13c-1.071-1.194-2.005-1.64-3-3l-7-1c-1.029.807-.246.369-2,1-.189,5.72-1.342,8.591,1,12,1.673.871,2.991-.186,5,1C1507.787,817.388,1507.735,810.785,1512,808Zm-7-28h1v-4c-3.008-.137-2.784-.745-4,0-2.41.931-1.576,1.094-4,2l1,2C1502.415,779.762,1503.34,779.171,1505,780Zm134-9c-1.462-1.052-4.955-1.648-7-2-.48,3.667-.533,1.432,2,4h4C1638.645,771.274,1638.2,772.021,1639,771Zm-102-45h1c.052-7.808.316-4.6,4-7,2.8-2,3.635-4.58,4-9,6.713,2.083,12.4-2.886,18,1h1a30.8,30.8,0,0,0,.993-6.822L1479,719.529V721c6.414-.255,11.073-4.1,16-4,2.59.05,2.6,1.315,5,1,.591,1.966-1.079,3.83,0,6l5,3c1.615,3.951-2.892,6.4-3,8,.357,1.252,3.424,1.2,6,3,2.868,1.561,3.921,4.608,4,9,3.793.862,3.2-.4,5,3,3.351-.188,6.007-.529,8-2,.411-.269,7.335-12.691,8-16a14.338,14.338,0,0,0-5-1c1.115-2.16,1.471-3.957,2-5C1530.934,724.271,1534.313,724.056,1537,726Zm96,33a15.7,15.7,0,0,0,5-1c-1.652-6.578-9.185-5.908-13-7C1625.952,753.937,1631.27,754.886,1633,759Zm121-3c-2.549,2.811-5.5,6.347-6,11-3.459-2.644-4.9-2.374-10-5v-1h-1v1c-3.49.858-2.7,1.395-5,3a9.257,9.257,0,0,0,4,3c-1.029.807-.246.369-2,1a14.124,14.124,0,0,0,1,4c5.244-.207,7.228-2.556,10-3,1.285-.206,3,2.777,4,3a.678.678,0,0,0,.128.007l.608-.168c1.132-.62,2.518-2.662,3.264-2.839a28.218,28.218,0,0,1,3.692.915L1760,770V756S1755.68,756.994,1754,756Zm-68-8c1.3,2.823,3.257,3.731,6,5l1-2c.756-1.256.075-.958,0-4h-3c1.4-1.945,2.748-2.739,4-5l-3-1c-1.029.807-.246.369-2,1C1688.409,745.5,1689.482,746.275,1686,748Zm11-24v-3c-2.319.227-2.821.2-4,1-.758,1.076-.628.924-1,3h-3v3a26.08,26.08,0,0,1,5,3l1-2s.435-4.412,0-5C1696.719,722.977,1695,723.971,1697,724Zm-15,34v8c2.32-.743,2.234-1.039,4-2,.645-1.726.2-.979,1-2-.4-2.054-.248-1.927-1-3C1684.254,757.862,1684.078,758.652,1682,758Zm8,30a14.039,14.039,0,0,0-3.059,2.208l8.415-2.328C1693.3,787.445,1691.322,787.339,1690,788Zm-28-2a116.477,116.477,0,0,1-19-11h-2q.5,6.5,1,13c1.078.915.091-.084,1,1,4.966-.578,2.67-.032,4-3,7.154.525,6.342,2.9,15,3Zm8.042,8.882L1665,789l-1,4,5.039,2.159ZM1758,731c.756-1.256.075-.958,0-4h-2c-1.162,2.223-1.448,1.5-3,3-1.078.915-.091-.084-1,1,1.557,1.138.811,1.1,3,2v1C1757.316,732.882,1756.817,733.067,1758,731ZM1369,851c-7.3-3.339-13.554-1.778-20-4-.815,2.743-1.3,4.074-2,5v2c7.743.9,8.619-.244,15-4a11.568,11.568,0,0,0,2,3c.977.59,2.9-.916,6-1C1370,851.333,1369,851.667,1369,851Zm332-76c-.262,3.748-2.075,4.326-2,8-1.078.915-.091-.084-1,1l6-1c.645-1.726.2-.979,1-2C1704.573,776.343,1704.211,776.6,1701,775Zm-380,71v-2l-9-1q-.5-3-1-6h5c.831-4.091,1.287-2.74,1-6,3.285-.81,7.753-.6,10-3h1c-1.358-2.738-1.375-2.522-5-3,1.8-4.931,5.641-3.776,11-4-.629-4.189,1.509-7.107,0-10v-2l-7,1c.317-6.038,3.1-6.937,7-9,.238-3.415.829-4.34,0-6-.056-6.533-1.165-4.288-3-6-.476-.787-.088-2.847,0-6l7,1c-.605-3.118-.172-2.432-2-4v-2l5-1v-3c-3.85-.734-6.315-3.051-9-4-2.6-.919-14.918,1.173-17,2v-1h-1c-.685-2.286-2.615-8.762-4-11,1.334-1.9,1.326-.848,2-4a49.978,49.978,0,0,1,11-1,9.233,9.233,0,0,0-.573-1.343L1053,803l-9-2v26L750,884h-3L628,906v6L414,955l-31-17-78,16L174,882l-1,43-4,1v60l136,88,78-17,31,19,19-4.5V1003a103.626,103.626,0,0,1,10,3c-.333,1-.667,1-1,2h-5v62l191-43v-7l82-20V946a31.073,31.073,0,0,1,10,3v2c-2.319-.227-2.82-.2-4-1h-2v49l33-8,3,1,198-45,1-50a18.95,18.95,0,0,1,6,1c1.144-1.357.507.316,3,1-1.519,2.415-1.588,2.363-4,1h-2v46l155-34v-9l48-11s-2-33.292,1-38c.61-.7,4.6.21,6,0,1.355,1.6.611,1.158,3,2-1.437,2.389-2.612,2.625-5,1h-2c-.114,7.264,1,34,1,34s5.624-.65,4-2c.4-2.054.248-2.927,1-4,3.686-1.673,4.945,3.241,9.12,3.1l3.065-.691c4.316-1.485,7.037-4.162,13.815-1.409,2.006-3.318,4.6-5.211,7-8,5.951,1.188,7,11,7,11l47-10v-8l69-15S1318.993,848.105,1321,846Zm415-168c4.211.526,7.462,1.744,9,5,3.816-.842,6.168-4.334,8-7,3.118.605,2.432.172,4,2a5.143,5.143,0,0,0,3-2v-3l-24,4.851Zm-1,36c-3.948-1.471-4.68-3.129-9-4-1.258,3.089-2.087,2.824-5,4v3c1.9-.993,2.746-1.377,4-3,3.581.422,2.613-.53,3,2h7Zm-28,67c1.776-1.474,2.235-3.517,4-5-2.021-1.271-3.338-.741-6-1a20.14,20.14,0,0,1,1,7C1707.078,781.085,1706.091,782.084,1707,781Zm-63-20c1.029.807.246.369,2,1v-1c.807-1.029.369-.246,1-2-.807-1.029-.369-.246-1-2h-4C1642.456,760.56,1641.475,759.534,1644,761Zm11-5c-1.762,1.624-2.52,1.812-6,2,.474,2.261.859,1.117,0,3v1c5.1-.261,5.081-1.162,8-3C1656.128,755.783,1657.542,757.456,1655,756Zm2,15c-1.181-1.174-.883-.442-3-1C1655.723,771.383,1654.54,772.388,1657,771Zm5-16c.185.967-.816,3.607,1,3C1662.212,755.951,1664.4,757.06,1662,755Zm-171,46v-3c-2.054-.4-1.927-.248-3-1h-2a14.124,14.124,0,0,0,1,4Zm83-98.235-1.333.235H1574ZM1655,741a21.612,21.612,0,0,1-4,4c2.317,3.365,3.381,4.9,6,9,4.505-.261,4.8-1.063,8-2v-2c-2.462-.63-1.6-.374-4,0a6.107,6.107,0,0,1,2-2v-1h-5c-.227-2.319-.2-2.82-1-4v-2ZM1370,843l1,3,2,1v-1h1C1372.633,841.784,1373.06,843.993,1370,843Zm3-3c-.251-4.927-1.17-7.593-5-9-1.144-1.357-.507.316-3,1-3.21-3.462-7.586-6.865-10-11-5.84.552-8.584,2-12-1h-3C1341.559,823.026,1368.977,839.28,1373,840Zm4-69v-1h-1c-1.319-2.429.468-.705-2-2-1.029.807-.246.369-2,1,.645,1.726.2.979,1,2C1374.256,771.756,1373.958,771.075,1377,771Zm-9-5c-.368,2.409-.733,1.758,1,4v1c.687.886,1.913-1.9,2-2h1A8.453,8.453,0,0,0,1368,766Zm288,13c2.054-.4,1.927-.248,3-1,.758-1.076.628-.924,1-3h-3v-1h1c-1.761-3.373-5.876-.28-7-5-3.908,1.066-2.159,1.083-6,1v2C1648.52,773.741,1653.609,776.01,1656,779Zm-274,64c.417-1.043-.633-1.3,0-4a20.14,20.14,0,0,0-7-1c.227,2.319.2,2.82,1,4v2C1378.727,843.976,1380.583,843.961,1382,843Z" fill="#946947"/>
        </g>
    </a>
    <a data-floor='{"floor": "7", "flats": "135"}' class="Genplan_poligonLink" xlink:href="#">
        <g id="_1k_2fl" data-name="1k_2fl" opacity="0.7">
            <path class="SvgWrap_genplanPath" d="M1574,699c-3.561.332-3.333.062-5,2h-2v-1c2.91-1.064,3.916-2.193,5-5h4c-.69-2.743.617-1.616-2-2,1.267-2.557,1.037-2.171,4-3-1.118-2.316-.933-1.817-3-3v-1c7.431.054,12.617-1.378,17,5,4.281-.666,8.624-2.324,11-5,.642-1.49,1.243-.433,0-2,1.11-1.948,5.943-5.145,8-6v-2a13.971,13.971,0,0,0-7,0v-2c4.809-2.07,7.638-5.2,13-6v-4c-1.726.645-.979.2-2,1-3.511-.909-.264-1.061-5-1l-1-3c-2.015-1.149-4.46,1.048-6,0h-1c1.719-1.023,0-.029,2,0v-5h-4c-.869-6.135-.807-1.371,0-8,5.63-.65,5.273-2.8,9-5,2.565-.033,5.14,3.478,10,3l2,6,8-1v5h4c-1.174.807-1.672.8-4,1v3c3.628.731,2.825,1.541,5,1,.754.6,1.222,1.717,2,4a52.778,52.778,0,0,1,8,0c-.4-2.054-.248-1.927-1-3,1.655-2.694-.162-1.008,3-1,.068-3.745,1.725-2.29-2-4,1.545-2.481,3.711-1.55,6-3l2-1c-1.328-3.5-2.418-2.38-3-7h-7v-1l7-2c-.771-3.519-1.284-2.465-2-6h-3a16.681,16.681,0,0,0,.48-4.825L1396,671v21l-3,1-25-3-21,4v5l-3,1-36-1-7,1v6l-3,1-36-1-20,4v2l-3,1-8-1-24,4v6l-3,1-37-1-22,4v2l-4,1-12-1-25,5v7l-4,1-18-4-25,4v7l-4,1-10-2v10L751,806l-5,1L628,826v7L414,870l-30-15-78,13L175,802v62l-6,1v14l5,3,131,72,78-16,31,17,214-43v-6l119-22h3l294-57V801l9,2,269.427-49.343c-1.953-3.808-6.431-6.785-8.427-9.657l2-1c1.487-.655,6.706,1.2,9,3,2.636-1.747,1.392-.067,1-3,8.8,1.053,16.113-1.753,24-2-.872,3.217.542,1.544-2,3v1h1c3.272,2.089,3.769-1.784,9-3v-3c-12.179-4.7-13.628-14.3-21-21,.109-1.027,1.076-1.671,1-4,2.779-1.308,2.61-1.214,5-1,1.515-3.427,2.692-4.884,2-8l2,1c2.235-4.587,7.744-4.44,12-9a12.787,12.787,0,0,1,4,6c6.388-2.836,13.091,5.689,20-2,3.469,1.214,6.693,2.328,8,6,4.884-1.069.071-.978,4-3,1.029-.807.246-.369,2-1a10.925,10.925,0,0,0,3,2c-.456,3.56.525,2.534-2,4v2c2.232-.635,2.641-.739,4-2,.85.462,1.793,1.826,5,3-.486,4.1-.268,3.414-3,5,.227,2.319.2,2.82,1,4,4.616,2.636,16.153-1,23,2h7v-2c-1.244-1.066-2.762-4.3-4-5-1.6-.91-3.9-.24-5-1h-1c1.075-.758.924-.628,3-1-.645-1.726-.2-.979-1-2-.977-.659-2.2.155-4-1-.694-.828-1.684-3.47-2-7h-3c.5-4.426,2.862-8.911,1-12,4.056-2.781,6.742,1.284,11-1h2c-.718-3.282-1.021-2.33-2-5,2.609-1.409,7.545-4.438,9-7,4.254.555,10.24.65,12,4h2c-.4-2.054-.248-1.927-1-3v-2c3.539.412,4.6.383,6,3,6.2-.994,12.781-4.149,15-8,4.256,1.853,8.806,7.931,15,5,5.282.419,4.31,1.623,8,3-1.389,5.555-2.62,10.6-10,12,2.208,2.522,5.68,2.309,9,1,1.339,2.511,1.049,2.893,4,4-1.155,5.7-5.159,10.828-2,15v1c-4.548.786-8.23-1.031-10-1-5.03.7-4.342,2.387-8,4v2.529l86.993-15.351c0-.063.005-.114.007-.178,1.078-.915.091.084,1-1h5.667l1.333-.235Zm32-30c-1.722.889-1.28.881-3,0Zm-6-7v-1c.807,1.029.369.246,1,2,0,0-3.923-.225-2-1Zm-1-14c-1.726-.645-.979-.2-2-1C1598.726,647.645,1597.979,647.2,1599,648Zm83-16a8.453,8.453,0,0,1-4,3c.807,3.227,3.014,5.8,5,8,2.221,1.708,5.926,1.451,7,2l2,1a24.588,24.588,0,0,1-1,6,14.124,14.124,0,0,0,1,4l3,1,1-2c1.178-.792-.854-2.854-3-4,1.719-1.023,0-.029,2,0-1.319-2.429.468-.705-2-2v-1c1.958-.442,1.287.435,2,1,2.012-.788,4.521-7.134,5-12h1a25.766,25.766,0,0,0,2,5c2.319-.227,2.821-.2,4-1,.889-1.722.881-1.28,0-3a17.682,17.682,0,0,1,4-2c1.5,2.458.539,2.188,4,3,.442,2.078.95,4.562,2,6-1.226,2.255-1.727,2-4,3a14.124,14.124,0,0,0,1,4c14.442-1.264,6.273-.86,14,7v1h-4c0,4.165-.117,5.962-2,8,.386,7.141,4.631,4.791,11,5,.227-2.319.2-2.82,1-4,1.029-.807.246-.369,2-1,2.007,2.454.305,2.606,4,4-1.484,2.472-.42,1.584-4,2v3.851L1760,673V618l-84.361,14.359C1677.6,632.351,1679.624,632.1,1682,632Zm67,39h2c-.4,2.054-.248,1.927-1,3v1h-1Zm-33-37h2v5c-1.078-.915-.091.084-1-1h-2Zm-294.277,95.637-1.229.217c-.4.044-.884.086-1.494.146v-4h2v1l2-1v1c1.243,1.567.642.51,0,2A4.339,4.339,0,0,1,1421.723,729.637Zm15.427-2.722-.15.026V726c-.8-1.021-.355-.274-1-2h3C1438.19,727.173,1439.423,725.61,1437.15,726.915Z" fill="#946947"/>
        </g>
    </a>
    <a data-floor='{"floor": "6", "flats": "8"}' class="Genplan_poligonLink" xlink:href="#">
        <g id="_1k_3fl" data-name="1k_3fl" opacity="0.7">
            <path class="SvgWrap_genplanPath" d="M1666,576l94-13v55l-84.361,14.359A16.045,16.045,0,0,1,1672,632l-1-2c-2.348-.372-3.573,1.686-7,2a12.662,12.662,0,0,0-1-4h-2v3h-4a17.682,17.682,0,0,0-2-4c-2.655,1.691-9.557,1.776-13,0v1a5.938,5.938,0,0,1,2.48,4.175L1396,671v21l-3,1-25-3-21,4v5l-3,1-36-1-7,1v6l-3,1-36-1-20,4v2l-3,1-8-1-24,4v6l-3,1-37-1-22,4v2l-4,1-12-1-25,5v7l-4,1-18-4-25,4v7l-4,1-10-2v10L751,806l-5,1L628,826v7L414,870l-30-15-78,13L175,802l-3-2V790l3-2V728l130,53,79-11,30,12,214-31v-6l119-17h4l292-42V674l10,2,332-46h8l3-2V609l256-35Z" fill="#946947"/>
        </g>
    </a>
    <a data-floor='{"floor": "5", "flats": "5"}' class="Genplan_poligonLink Genplan_poligonLink-filtered" xlink:href="#">
        <g id="_1k_4fl" data-name="1k_4fl" opacity="0.7">
            <path class="SvgWrap_genplanPath" d="M1666,519l94-10v54l-94,13-14-2-256,35v19l-3,2h-8l-332,46-10-2v12L751,728h-4L628,745v6L414,782l-30-12-79,11L175,728l-7-3V711l6-1V649l132,46,78-9,30,11,214-28v-3l119-15h4l292-36V604l10,2,3-1v-4l27-3,17,2,4-1v-5l16-2h22l12-3,25-3,25,2,3-2v-2l24-3,20,2,3-1v-5l19-2,13,2h3v-4l19-2,36,1,3-1v-4l21-2,25,3,3-1V546l256-28Z" fill="#946947"/>
        </g>
    </a>
    <a data-floor='{"floor": "4", "flats": "9"}' class="Genplan_poligonLink" xlink:href="#">
        <g id="_1k_5fl" data-name="1k_5fl" opacity="0.7">
            <path class="SvgWrap_genplanPath" d="M1666,462l94-8v55l-94,10-14-1-256,28v21l-3,1-25-3-21,2v4l-3,1-36-1-19,2v4h-3l-13-2-19,2v5l-3,1-20-2-24,3v2l-3,2-25-2-25,3-12,3h-22l-16,2v5l-4,1-17-2-27,3v4l-3,1-10-2v11L751,651h-4L628,666v3L414,697l-30-11-78,9L174,649l-1-1V635l2-2V573l130,36,79-9,30,9,214-21v-4l119-12,4,1,292-29V532l10,1,332-30,8,1h3V484l256-23Z" fill="#946947"/>
        </g>
    </a>
    <a data-floor='{"floor": "3", "flats": "1"}' class="Genplan_poligonLink" xlink:href="#">
        <g id="_1k_6fl" data-name="1k_6fl" opacity="0.7">
            <path class="SvgWrap_genplanPath" d="M1666,404l94-5v55l-94,8-14-1-256,23v20h-3l-8-1-332,30-10-1v12L751,573l-4-1L628,584v4L414,609l-30-9-79,9L175,573l-7-2V556h7V495l131,28,78-7,30,6,214-16v-3l119-8h4l292-23v-9l10,1h3v-3l27-2,17,2,4-1v-2l11-1,41-1v-2l11-1h40v-3l23-2,9,1h3v-2l20-1,25-1,9-2,23-1h16v-1l33-2,25,2h3V421l256-17Z" fill="#946947"/>
        </g>
    </a>
    <a data-floor='{"floor": "2", "flats": "3"}' class="Genplan_poligonLink Genplan_poligonLink-filtered" xlink:href="#">
        <g id="_1k_7fl" data-name="1k_7fl" opacity="0.7">
            <path class="SvgWrap_genplanPath" d="M1666,348l94-4v55l-94,5h-14l-256,17v20h-3l-25-2-33,2v1h-16l-23,1-9,2-25,1-20,1v2h-3l-9-1-23,2v3h-40l-11,1v2l-41,1-11,1v2l-4,1-17-2-27,2v3h-3l-10-1v9L751,495h-4l-119,8v3L414,522l-30-6-78,7L175,495l-2-1V479h2V416l131,20,78-5,30,4,214-11v-3l119-4h4l292-15v-8h13v-3l27-1h21v-2h52v-2h51v-3l23-1h12v-2l20-1h25l9-1,23-1h16v-1l33-1,25,1h3V358l256-10Z" fill="#946947"/>
        </g>
    </a>
    <a data-floor='{"floor": "1", "flats": "4"}' class="Genplan_poligonLink" xlink:href="#">
        <g id="_1k_8fl" data-name="1k_8fl" opacity="0.7">
            <path class="SvgWrap_genplanPath" d="M1666,290l94-2v56l-94,4h-14l-256,10v18h-3l-25-1-33,1v1h-16l-23,1-9,1h-25l-20,1v2h-12l-23,1v3h-51v2h-52v2h-21l-27,1v3h-13v8L751,417h-4l-119,4v3L414,435l-30-4-78,5L175,416l-2-1V403l2-2V339h-1v-2l132,11,78-2,30,2,214-6v-1l119-3h4l292-8V320h10l343-8V295l256-5Z" fill="#946947"/>
        </g>
    </a>
</svg>
