<!-- нужно добавить в svg тег - xmlns:xlink="http://www.w3.org/1999/xlink"-->
<svg xmlns="http://www.w3.org/2000/svg" xmlns:xlink="http://www.w3.org/1999/xlink" width="460" height="380" class="BldScheme" viewBox="0 0 460 380"><path fill="#81818C" d="M339 298v78h121V0h-62v7h-57V0h-73v3h-76V0h-73v7H62V0H0v376h121v-78H73v-31h12V113H73V84h30v-4h34v4h76v-4h34v4h76v-4h34v4h30v29h-12v154h12v31z"/><g fill="#FFF"><path d="M389 300h-48v74h16v-38h29v-10h20v-24h-3v-13h3v-22h-17z"/><path d="M377 9v31h21v4h18v91h-7v-22h-20V82h-30v-4h-18V9z"/><path d="M339 78V2h-69v30h-10v12h4v-4h42v4h17v34z"/><path d="M71 267H51v-48h-7v94h-4v5h13v18h3v4h4v-4h39v38h20v-74H71z"/><path d="M137 78V44h17v-4h42v4h4V32h-10V2h-69v76z"/><path d="M83 9v31H62v4H44v116h7v-47h20V82h30v-4h18V9z"/><path d="M437 368h21v6h-21z"/><path d="M2 358h4v16H2z"/></g><path fill="#81818C" d="M390.9 318.8c-1.1-1.1-1.8-2.6-1.8-5.4 0-4.3 2-7.6 6-7.6 1.9 0 3.1.5 4.3 1.5l-1.3 2c-1-.8-1.8-1.3-3-1.3-2.1 0-3.3 1.9-3.4 4.4.7-.7 1.7-1.4 3.3-1.4 2.8 0 5 1.6 5 4.5 0 2.8-2.3 4.7-5.3 4.7-1.7 0-3-.5-3.8-1.4zm6.6-3.3c0-1.4-1.1-2.4-2.9-2.4s-2.8 1.1-2.8 2.5 1.1 2.5 2.9 2.5c1.7 0 2.8-1 2.8-2.6z"/><path fill="#81818C" d="M397 83.1l1.5-1.8c1 1 2.3 1.7 3.6 1.7 1.6 0 2.7-1 2.7-2.5 0-1.4-1.2-2.3-2.9-2.3a6 6 0 0 0-2.5.6l-1.5-1 .4-6.8h8.3v2.2h-6.2l-.2 3.3a6 6 0 0 1 2.2-.4c2.7 0 4.9 1.4 4.9 4.4 0 2.9-2.1 4.7-5.2 4.7-2.2 0-3.8-.8-5.2-2.1z"/><path fill="#81818C" d="M56.6 294.4l-2.6.7-.5-2 3.8-1.2H59V306h-2.4v-11.6z"/><path fill="#81818C" d="M53 83l4.8-4c2-1.7 2.6-2.6 2.6-3.8 0-1.4-1-2.2-2.2-2.2s-2.2.7-3.3 2.1l-1.7-1.4c1.3-1.8 2.6-2.9 5.1-2.9 2.8 0 4.7 1.7 4.7 4.2 0 2.2-1.2 3.4-3.7 5.4l-2.9 2.4h6.7V85H53v-2z"/><path fill="#81818C" d="M169.9 28.8l1.7-1.6c1 1.2 2.1 1.8 3.7 1.8 1.3 0 2.4-.8 2.4-2.1 0-1.4-1.3-2.2-3.2-2.2h-1.2l-.4-1.5 3.8-4h-6V17h9.2v1.8l-3.9 4c2.2.4 4.1 1.5 4.1 4 0 2.6-2 4.4-4.9 4.4-2.4 0-4.2-1-5.3-2.4z"/><path fill="#81818C" d="M286.2 27.9h-7l-.5-1.8 7.8-9.2h2.1v9h2v2h-2V31h-2.4v-3.1zm0-2v-5.6l-4.6 5.5h4.6z"/><g><path fill="#CA6E84" d="M286 42v40h35V46h-17v-4z"/><path fill="#CA6E84" d="M174 42v40h-35V46h17v-4z"/><path fill="#CA6E84" d="M284 42v40h-35V46h17v-4z"/><path fill="#CA6E84" d="M176 42v40h35V46h-17v-4z"/><path fill="#A6B961" d="M231 78h16V44h11V30h10V5h-37z"/><path fill="#A6B961" d="M229 78h-16V44h-11V30h-10V5h37z"/><path fill="#F8ECA8" d="M53 228h30v37H53z"/><path fill="#CA6E84" d="M83 226H53v-9h-9v-26h39z"/><path fill="#CA6E84" d="M2 191h40v35H2z"/><path fill="#A6B961" d="M42 280H2v-52h40z"/><path fill="#CA6E84" d="M38 318H2v-36h40v29h-4z"/><path fill="#F8ECA8" d="M53 115h30v37H53z"/><path fill="#CA6E84" d="M83 154H53v8h-9v27h39z"/><path fill="#CA6E84" d="M2 154h40v35H2z"/><path fill="#CA6E84" d="M418 117h40v35h-40z"/><path fill="#CA6E84" d="M2 117h40v35H2z"/><path fill="#CA6E84" d="M418 80h40v35h-40z"/><path fill="#CA6E84" d="M2 80h40v35H2z"/><path fill="#CA6E84" d="M418 44h40v34h-40z"/><path fill="#CA6E84" d="M2 44h40v34H2z"/><path fill="#BBB8DB" d="M458 42h-58v-4h-21V9h21V2h58z"/><path fill="#BBB8DB" d="M2 42h58v-4h21V9H60V2H2z"/><path fill="#A5D3DA" d="M40 374H8v-18H2v-36h49v16H40z"/><path fill="#A5D3DA" d="M54 338v4h8v-4h35v36H42v-36z"/><path fill="#A5D3DA" d="M377 189h81v-35h-81z"/><path fill="#F8ECA8" d="M407 115h-30v37h39v-15h-9z"/><path fill="#A5D3DA" d="M359 338v36h76v-8h23V265h-41v2h-9v24h-3v9h3v28h-20v10z"/><path fill="#A5D3DA" d="M458 191v72h-43v2h-38v-74z"/></g>

<!--START: Sections-->
<g>
	<a class="BldScheme_link BldScheme_link-n1" xlink:href="/section.html">
		<polygon points="71,300 119,300 119,374 2,374 2,191 83,191 83,265 71,265 	"/>
	</a>

	<a class="BldScheme_link BldScheme_link-n2" xlink:href="/section.html">
		<polygon points="83,189 2,189 2,2 60,2 60,9 119,9 119,78 101,78 101,82 71,82 71,115 83,115 	"/>
	</a>

	<a class="BldScheme_link BldScheme_link-n4" xlink:href="/section.html">
		<polygon points="339,2 339,78 321,78 321,82 249,82 249,78 231,78 231,5 270,5 270,2 	"/>
	</a>

	<a class="BldScheme_link BldScheme_link-n3" xlink:href="/section.html">
		<polygon points="121,2 121,78 139,78 139,82 211,82 211,78 229,78 229,5 190,5 190,2 	"/>
	</a>

	<a class="BldScheme_link BldScheme_link-n6" xlink:href="/section.html">
		<polygon points="389,300 341,300 341,374 458,374 458,191 377,191 377,265 389,265 	"/>
	</a>

	<a class="BldScheme_link BldScheme_link-n5" xlink:href="/section.html">
		<polygon points="377,189 458,189 458,2 400,2 400,9 341,9 341,78 359,78 359,82 389,82 389,115 377,115 	"/>
	</a>
</g>
<!--END: Sections-->

</svg>