<svg width="231px" height="213px" viewBox="0 0 231 213" version="1.1" xmlns="http://www.w3.org/2000/svg" xmlns:xlink="http://www.w3.org/1999/xlink">
    <!-- Generator: sketchtool 52.4 (67378) - http://www.bohemiancoding.com/sketch -->
    <title>C6C28E80-21E0-47B2-A87A-0C607D17F523</title>
    <desc>Created with sketchtool.</desc>
    <g id="Symbols" stroke="none" stroke-width="1" fill="none" fill-rule="evenodd">
        <g id="мини-карта" transform="translate(-25.000000, -42.000000)">
            <g transform="translate(149.905445, 158.549038) scale(-1, -1) rotate(-60.000000) translate(-149.905445, -158.549038) translate(27.905445, 54.549038)">
                <rect id="Rectangle" fill="#C6C6C6" fill-rule="nonzero" opacity="0.400000006" x="81" y="88" width="39" height="9" rx="1"></rect>
                <path d="M54.2233385,141.139038 L76.2108561,111.472453 C76.5903364,110.96044 77.3213818,110.846936 77.8436917,111.218935 L83.5180458,115.260317 C84.0403556,115.632316 84.1561419,116.348949 83.7766615,116.860962 L61.7891439,146.527547 C61.4096636,147.03956 60.6786182,147.153064 60.1563083,146.781065 L54.4819542,142.739683 C53.9596444,142.367684 53.8438581,141.651051 54.2233385,141.139038 Z" id="Rectangle-Copy-5" fill="#C6C6C6" fill-rule="nonzero" opacity="0.400000006"></path>
                <path d="M42.2149176,119.032502 L47.5045407,111.48104 C47.869713,110.959721 48.5731948,110.844154 49.0758113,111.222915 L54.5362175,115.337758 C55.0388341,115.716519 55.1502546,116.446179 54.7850824,116.967498 L49.4954593,124.51896 C49.130287,125.040279 48.4268052,125.155846 47.9241887,124.777085 L42.4637825,120.662242 C41.9611659,120.283481 41.8497454,119.553821 42.2149176,119.032502 Z" id="Rectangle-Copy-10" fill="#C6C6C6" fill-rule="nonzero" opacity="0.400000006"></path>
                <path d="M72.2225356,160.077342 L98.2388555,124.477426 C98.6169717,123.960024 99.3453892,123.845325 99.8658216,124.22124 L105.519778,128.305164 C106.040211,128.681079 106.155581,129.405256 105.777464,129.922658 L79.7611445,165.522574 C79.3830283,166.039976 78.6546108,166.154675 78.1341784,165.77876 L72.4802218,161.694836 C71.9597894,161.318921 71.8444194,160.594744 72.2225356,160.077342 Z" id="Rectangle-Copy-6" fill="#C6C6C6" fill-rule="nonzero" opacity="0.400000006"></path>
                <path d="M93.218143,175.06863 L119.392053,138.478128 C119.762705,137.959965 120.476745,137.845098 120.986904,138.221565 L126.529257,142.311497 C127.039417,142.687965 127.15251,143.413207 126.781857,143.93137 L100.607947,180.521872 C100.237295,181.040035 99.5232554,181.154902 99.0130959,180.778435 L93.4707427,176.688503 C92.9605831,176.312035 92.8474904,175.586793 93.218143,175.06863 Z" id="Rectangle-Copy-7" fill="#D8D1C2" fill-rule="nonzero"></path>
                <path d="M107.220851,155.087749 L111.297599,149.476587 C111.672853,148.960094 112.395758,148.845597 112.912251,149.220851 L118.523413,153.297599 C119.039906,153.672853 119.154403,154.395758 118.779149,154.912251 L114.702401,160.523413 C114.327147,161.039906 113.604242,161.154403 113.087749,160.779149 L107.476587,156.702401 C106.960094,156.327147 106.845597,155.604242 107.220851,155.087749 Z" id="Rectangle-Copy-14" fill="#946947" fill-rule="nonzero"></path>
                <path d="M127.224065,122.261918 L136.185533,110.462547 C136.566247,109.961269 137.299669,109.850146 137.823677,110.214345 L143.516479,114.170997 C144.040487,114.535196 144.156649,115.236804 143.775935,115.738082 L134.814467,127.537453 C134.433753,128.038731 133.700331,128.149854 133.176323,127.785655 L127.483521,123.829003 C126.959513,123.464804 126.843351,122.763196 127.224065,122.261918 Z" id="Rectangle-Copy-11" fill="#D8D1C2" fill-rule="nonzero" opacity="0.400000006"></path>
                <path d="M150.224397,140.030728 L168.173935,115.481183 C168.555214,114.959709 169.289725,114.844108 169.814511,115.222981 L175.515761,119.339048 C176.040547,119.717921 176.156882,120.447798 175.775603,120.969272 L157.826065,145.518817 C157.444786,146.040291 156.710275,146.155892 156.185489,145.777019 L150.484239,141.660952 C149.959453,141.282079 149.843118,140.552202 150.224397,140.030728 Z" id="Rectangle-Copy-12" fill="#D8D1C2" fill-rule="nonzero" opacity="0.400000006"></path>
                <path d="M178.220675,148.116458 L201.303762,116.474273 C201.678716,115.960288 202.401042,115.846347 202.917122,116.219779 L208.523794,120.276731 C209.039874,120.650163 209.154279,121.369557 208.779325,121.883542 L185.696238,153.525727 C185.321284,154.039712 184.598958,154.153653 184.082878,153.780221 L178.476206,149.723269 C177.960126,149.349837 177.845721,148.630443 178.220675,148.116458 Z" id="Rectangle-Copy-13" fill="#D8D1C2" fill-rule="nonzero" opacity="0.400000006"></path>
                <path d="M232.444283,168.186973 L226.013501,178.924022 L221.702093,174.616213 C221.702206,174.616213 232.444283,168.186973 232.444283,168.186973 Z" id="Shape" fill="#E2574C" fill-rule="nonzero" transform="translate(227.073188, 173.555497) rotate(-120.000000) translate(-227.073188, -173.555497) "></path>
                <path d="M230.729891,181.345329 L241.472082,174.91609 L237.160674,170.608281 C237.160673,170.608394 230.729891,181.345329 230.729891,181.345329 Z" id="Shape" fill="#4A90E2" fill-rule="nonzero" transform="translate(236.100986, 175.976805) rotate(-120.000000) translate(-236.100986, -175.976805) "></path>
                <path d="M115.220212,191.060289 L142.319887,153.478801 C142.694056,152.959908 143.414868,152.84488 143.929867,153.221877 L149.524792,157.31756 C150.039791,157.694557 150.153956,158.420818 149.779788,158.939711 L122.680113,196.521199 C122.305944,197.040092 121.585132,197.15512 121.070133,196.778123 L115.475208,192.68244 C114.960209,192.305443 114.846044,191.579182 115.220212,191.060289 Z" id="Rectangle-Copy-9" fill="#D8D1C2" fill-rule="nonzero" opacity="0.400000006"></path>
                <rect id="Rectangle-Copy-3" fill="#C6C6C6" fill-rule="nonzero" opacity="0.400000006" x="128" y="88" width="39" height="9" rx="1"></rect>
                <rect id="Rectangle-Copy-4" fill="#D8D1C2" fill-rule="nonzero" opacity="0.400000006" x="175" y="88" width="39" height="9" rx="1"></rect>
                <path d="M101.243975,96.3520508 C100.023975,96.3520508 99.1539746,95.8420508 98.5639746,95.1220508 L99.4239746,94.3220508 C99.9239746,94.9120508 100.483975,95.2420508 101.263975,95.2420508 C101.953975,95.2420508 102.473975,94.8220508 102.473975,94.1620508 C102.473975,93.4720508 101.843975,93.0820508 100.863975,93.0820508 L100.293975,93.0820508 L100.093975,92.3120508 L101.983975,90.3020508 L98.9539746,90.3020508 L98.9539746,89.2320508 L103.583975,89.2320508 L103.583975,90.1520508 L101.633975,92.1520508 C102.743975,92.3120508 103.693975,92.8820508 103.693975,94.1420508 C103.693975,95.4320508 102.693975,96.3520508 101.243975,96.3520508 Z" id="3" fill="#946947" transform="translate(101.128975, 92.792051) scale(-1, -1) rotate(-301.000000) translate(-101.128975, -92.792051) "></path>
                <path d="M144.757949,96.7320508 L144.757949,95.7620508 L147.167949,93.7120508 C148.127949,92.9020508 148.477949,92.4520508 148.477949,91.8220508 C148.477949,91.1320508 147.987949,90.7320508 147.347949,90.7320508 C146.707949,90.7320508 146.267949,91.0820508 145.727949,91.7820508 L144.857949,91.1020508 C145.527949,90.1620508 146.187949,89.6320508 147.437949,89.6320508 C148.807949,89.6320508 149.747949,90.4720508 149.747949,91.7420508 C149.747949,92.8420508 149.157949,93.4320508 147.927949,94.4520508 L146.487949,95.6520508 L149.817949,95.6520508 L149.817949,96.7320508 L144.757949,96.7320508 Z" id="2" fill="#946947" transform="translate(147.287949, 93.182051) scale(-1, -1) rotate(-300.000000) translate(-147.287949, -93.182051) "></path>
                <polygon id="1-copy-2" fill="#946947" transform="translate(194.996025, 90.841025) scale(-1, -1) rotate(-301.000000) translate(-194.996025, -90.841025) " points="195.146025 94.3660254 195.146025 88.5660254 193.886025 88.9160254 193.626025 87.9160254 195.506025 87.3160254 196.366025 87.3160254 196.366025 94.3660254"></polygon>
                <path d="M193.503975,138.352051 C192.643975,138.352051 192.023975,138.082051 191.563975,137.622051 C191.023975,137.082051 190.703975,136.352051 190.703975,134.922051 C190.703975,132.782051 191.723975,131.112051 193.703975,131.112051 C194.613975,131.112051 195.233975,131.402051 195.843975,131.892051 L195.183975,132.842051 C194.693975,132.462051 194.273975,132.232051 193.663975,132.232051 C192.623975,132.232051 192.043975,133.172051 191.983975,134.452051 C192.353975,134.092051 192.833975,133.752051 193.653975,133.752051 C195.013975,133.752051 196.103975,134.552051 196.103975,135.972051 C196.103975,137.362051 194.973975,138.352051 193.503975,138.352051 Z M193.473975,137.292051 C194.343975,137.292051 194.873975,136.742051 194.873975,136.002051 C194.873975,135.302051 194.313975,134.782051 193.443975,134.782051 C192.573975,134.782051 192.023975,135.342051 192.023975,136.032051 C192.023975,136.742051 192.593975,137.292051 193.473975,137.292051 Z" id="6" fill="#946947" transform="translate(193.403975, 134.732051) scale(-1, -1) rotate(-300.000000) translate(-193.403975, -134.732051) "></path>
                <path d="M162.173975,135.352051 C161.103975,135.352051 160.263975,134.922051 159.603975,134.282051 L160.363975,133.392051 C160.923975,133.912051 161.513975,134.232051 162.163975,134.232051 C163.003975,134.232051 163.553975,133.752051 163.553975,133.002051 C163.553975,132.292051 162.953975,131.842051 162.103975,131.842051 C161.603975,131.842051 161.173975,131.982051 160.813975,132.152051 L160.073975,131.662051 L160.273975,128.232051 L164.453975,128.232051 L164.453975,129.322051 L161.333975,129.322051 L161.223975,130.962051 C161.553975,130.842051 161.863975,130.762051 162.333975,130.762051 C163.693975,130.762051 164.763975,131.482051 164.763975,132.982051 C164.763975,134.412051 163.723975,135.352051 162.173975,135.352051 Z" id="5" fill="#946947" transform="translate(162.183975, 131.792051) scale(-1, -1) rotate(-300.000000) translate(-162.183975, -131.792051) "></path>
                <path d="M136.12,122 L136.12,120.43 L132.59,120.43 L132.36,119.55 L136.25,114.95 L137.3,114.95 L137.3,119.42 L138.3,119.42 L138.3,120.43 L137.3,120.43 L137.3,122 L136.12,122 Z M133.82,119.42 L136.12,119.42 L136.12,116.65 L133.82,119.42 Z" id="4" fill="#946947" transform="translate(135.330000, 118.475000) scale(-1, -1) rotate(-300.000000) translate(-135.330000, -118.475000) "></path>
                <path d="M68.15,133.1 C66.62,133.1 65.48,132.3 65.48,131.08 C65.48,130.23 65.95,129.7 66.74,129.37 C66.15,129.06 65.72,128.59 65.72,127.79 C65.72,126.72 66.75,125.9 68.15,125.9 C69.55,125.9 70.58,126.71 70.58,127.81 C70.58,128.59 70.15,129.06 69.56,129.37 C70.32,129.72 70.82,130.22 70.82,131.07 C70.82,132.32 69.68,133.1 68.15,133.1 Z M68.15,128.96 C68.87,128.96 69.4,128.53 69.4,127.91 C69.4,127.37 68.9,126.93 68.15,126.93 C67.4,126.93 66.9,127.37 66.9,127.92 C66.9,128.53 67.43,128.96 68.15,128.96 Z M68.15,132.07 C69.07,132.07 69.62,131.6 69.62,131 C69.62,130.36 68.98,129.94 68.15,129.94 C67.32,129.94 66.68,130.36 66.68,131.02 C66.68,131.59 67.23,132.07 68.15,132.07 Z" id="8" fill="#946947" transform="translate(68.150000, 129.500000) scale(-1, -1) rotate(-300.000000) translate(-68.150000, -129.500000) "></path>
                <polygon id="7" fill="#946947" transform="translate(49.273975, 117.732051) scale(-1, -1) rotate(-300.000000) translate(-49.273975, -117.732051) " points="47.1939746 121.232051 50.3339746 115.312051 46.8139746 115.312051 46.8139746 114.232051 51.7339746 114.232051 51.7339746 115.162051 48.5739746 121.232051"></polygon>
                <path d="M88.6239746,148.486025 C87.6539746,148.486025 86.9739746,148.136025 86.3839746,147.646025 L87.0539746,146.706025 C87.5839746,147.156025 88.0539746,147.366025 88.6539746,147.366025 C89.6839746,147.366025 90.3039746,146.456025 90.3439746,145.166025 C89.9939746,145.586025 89.4539746,145.906025 88.7039746,145.906025 C87.2139746,145.906025 86.2239746,145.036025 86.2239746,143.666025 C86.2239746,142.296025 87.2839746,141.246025 88.8339746,141.246025 C89.7139746,141.246025 90.2839746,141.496025 90.7739746,141.986025 C91.2939746,142.506025 91.6239746,143.276025 91.6239746,144.676025 C91.6239746,146.926025 90.5039746,148.486025 88.6239746,148.486025 Z M88.8839746,144.876025 C89.7739746,144.876025 90.3039746,144.296025 90.3039746,143.596025 C90.3039746,142.866025 89.7339746,142.306025 88.8439746,142.306025 C87.9739746,142.306025 87.4539746,142.886025 87.4539746,143.626025 C87.4539746,144.356025 88.0139746,144.876025 88.8839746,144.876025 Z" id="9" fill="#946947" transform="translate(88.923975, 144.866025) scale(-1, -1) rotate(-300.000000) translate(-88.923975, -144.866025) "></path>
                <path d="M131.378076,178.964102 L131.378076,173.164102 L130.118076,173.514102 L129.858076,172.514102 L131.738076,171.914102 L132.598076,171.914102 L132.598076,178.964102 L131.378076,178.964102 Z M135.338076,178.964102 L135.338076,173.164102 L134.078076,173.514102 L133.818076,172.514102 L135.698076,171.914102 L136.558076,171.914102 L136.558076,178.964102 L135.338076,178.964102 Z" id="11" fill="#946947" transform="translate(133.208076, 175.439102) scale(-1, -1) rotate(-300.000000) translate(-133.208076, -175.439102) "></path>
                <path d="M209,46.3138042 C175.864029,38 146.685966,35.921549 121.465811,40.078451 C111.52502,41.6284276 104.345559,43.7699263 97.2856031,46.3138042 C90.2256471,48.857682 85.6879515,49.6073312 73.5380956,51.3248503 C61.3882396,53.0423694 38.3497509,52.949044 42.4917472,61.8528934 C44.2866556,65.7113214 45.2518975,69.0074844 45.2751193,72" id="Path-3" stroke="#D1EFF3" stroke-width="5" transform="translate(125.500000, 55.000000) scale(1, -1) translate(-125.500000, -55.000000) "></path>
                <path d="M111.532,35.5558094 L111.532,27.4318094 L112.456,27.4318094 L112.456,28.6798094 C112.96,27.9358094 113.692,27.2998094 114.832,27.2998094 C116.32,27.2998094 117.796,28.4758094 117.796,30.5398094 C117.796,32.5678094 116.332,33.7678094 114.832,33.7678094 C113.68,33.7678094 112.936,33.1438094 112.456,32.4478094 L112.456,35.5558094 L111.532,35.5558094 Z M114.664,32.9398094 C115.864,32.9398094 116.848,32.0518094 116.848,30.5278094 C116.848,29.0638094 115.84,28.1278094 114.664,28.1278094 C113.512,28.1278094 112.42,29.0998094 112.42,30.5398094 C112.42,31.9798094 113.512,32.9398094 114.664,32.9398094 Z M119.392,33.6358094 L119.392,32.3758094 L120.496,32.3758094 L120.496,33.6358094 L119.392,33.6358094 Z M126.196,33.6358094 L126.196,25.2358094 L127.144,25.2358094 L127.144,30.2518094 L131.968,25.2358094 L133.192,25.2358094 L129.592,28.9078094 L133.348,33.6358094 L132.16,33.6358094 L128.932,29.5678094 L127.144,31.3798094 L127.144,33.6358094 L126.196,33.6358094 Z M134.368,33.7318094 C134.164,33.7318094 133.816,33.6838094 133.624,33.6358094 L133.732,32.8438094 C133.852,32.8798094 134.068,32.9278094 134.176,32.9278094 C134.92,32.9278094 135.544,32.6038094 135.544,27.9478094 L135.544,27.4318094 L139.936,27.4318094 L139.936,33.6358094 L139.012,33.6358094 L139.012,28.2478094 L136.42,28.2478094 L136.42,28.3918094 C136.42,33.2278094 135.544,33.7318094 134.368,33.7318094 Z M141.448,33.6358094 L143.344,31.2358094 C142.42,31.0198094 141.688,30.3718094 141.688,29.3638094 C141.688,28.2238094 142.552,27.4318094 144.028,27.4318094 L146.944,27.4318094 L146.944,33.6358094 L146.02,33.6358094 L146.02,31.3798094 L144.304,31.3798094 C143.728,32.1358094 143.164,32.8918094 142.588,33.6358094 L141.448,33.6358094 Z M144.1,30.5998094 L146.02,30.5998094 L146.02,28.2478094 L144.076,28.2478094 C143.152,28.2478094 142.612,28.6918094 142.612,29.3998094 C142.612,30.1558094 143.236,30.5998094 144.1,30.5998094 Z M150.976,33.7798094 C149.992,33.7798094 149.164,33.4678094 148.408,32.8558094 L148.876,32.1718094 C149.5,32.6998094 150.208,32.9758094 150.952,32.9758094 C151.756,32.9758094 152.488,32.5918094 152.488,31.8718094 C152.488,31.2478094 151.936,30.8518094 150.928,30.8518094 L150.1,30.8518094 L150.1,30.0958094 L150.94,30.0958094 C151.756,30.0958094 152.32,29.6758094 152.32,29.0278094 C152.32,28.4518094 151.744,28.1038094 150.976,28.1038094 C150.364,28.1038094 149.632,28.2958094 149.092,28.7278094 L148.636,28.0798094 C149.284,27.5758094 150.124,27.2998094 151.036,27.2998094 C152.428,27.2998094 153.28,27.9958094 153.28,28.9558094 C153.28,29.7238094 152.812,30.1678094 152.284,30.3838094 C152.968,30.6238094 153.436,31.0918094 153.436,31.9078094 C153.436,32.9038094 152.512,33.7798094 150.976,33.7798094 Z M155.152,33.6358094 L155.152,27.4318094 L156.076,27.4318094 L156.076,29.7598094 L157.732,29.7598094 C159.076,29.7598094 160.18,30.3118094 160.18,31.6198094 C160.18,32.8558094 159.256,33.6358094 157.84,33.6358094 L155.152,33.6358094 Z M156.076,32.8198094 L157.756,32.8198094 C158.68,32.8198094 159.244,32.4238094 159.244,31.6438094 C159.244,30.9238094 158.668,30.5518094 157.72,30.5518094 L156.076,30.5518094 L156.076,32.8198094 Z M161.608,33.6358094 L161.608,27.4318094 L162.484,27.4318094 L164.8,30.6958094 L167.116,27.4318094 L168.004,27.4318094 L168.004,33.6358094 L167.068,33.6358094 L167.068,28.9078094 L164.776,32.0518094 L162.508,28.9078094 L162.508,33.6358094 L161.608,33.6358094 Z M171.916,33.7678094 C170.752,33.7678094 169.6,33.1078094 169.6,31.8118094 C169.6,30.4798094 170.68,29.7838094 172.252,29.7838094 C173.044,29.7838094 173.596,29.8918094 174.148,30.0478094 L174.148,29.8558094 C174.148,28.7518094 173.476,28.1758094 172.312,28.1758094 C171.58,28.1758094 171.004,28.3558094 170.428,28.6198094 L170.152,27.8638094 C170.836,27.5518094 171.496,27.3358094 172.408,27.3358094 C173.284,27.3358094 173.968,27.5758094 174.412,28.0198094 C174.844,28.4518094 175.06,29.0518094 175.06,29.8438094 L175.06,33.6358094 L174.148,33.6358094 L174.148,32.7118094 C173.716,33.2638094 173.008,33.7678094 171.916,33.7678094 Z M172.096,33.0238094 C173.236,33.0238094 174.16,32.3398094 174.16,31.3558094 L174.16,30.7798094 C173.704,30.6478094 173.104,30.5158094 172.348,30.5158094 C171.196,30.5158094 170.536,31.0198094 170.536,31.7878094 C170.536,32.5678094 171.256,33.0238094 172.096,33.0238094 Z" id="р.-Клязьма" fill="#251914" transform="translate(143.296000, 30.395809) scale(-1, -1) rotate(-300.000000) translate(-143.296000, -30.395809) "></path>
                <path d="M-4.79581773,146.590099 L-1.56781773,142.306099 L-4.67581773,138.190099 L-3.55981773,138.190099 L-0.979817734,141.622099 L1.57618227,138.190099 L2.68018227,138.190099 L-0.427817734,142.294099 L2.80018227,146.590099 L1.67218227,146.590099 L-1.01581773,142.978099 L-3.70381773,146.590099 L-4.79581773,146.590099 Z M4.38418227,146.590099 L4.38418227,140.386099 L5.30818227,140.386099 L5.30818227,145.294099 L8.99218227,140.386099 L9.89218227,140.386099 L9.89218227,146.590099 L8.96818227,146.590099 L8.96818227,141.682099 L5.27218227,146.590099 L4.38418227,146.590099 Z M11.9561823,146.590099 L11.9561823,140.386099 L12.8321823,140.386099 L15.1481823,143.650099 L17.4641823,140.386099 L18.3521823,140.386099 L18.3521823,146.590099 L17.4161823,146.590099 L17.4161823,141.862099 L15.1241823,145.006099 L12.8561823,141.862099 L12.8561823,146.590099 L11.9561823,146.590099 Z M20.4161823,146.590099 L20.4161823,140.386099 L21.3401823,140.386099 L21.3401823,143.962099 L24.7361823,140.386099 L25.8761823,140.386099 L23.2841823,143.074099 L25.9481823,146.590099 L24.8561823,146.590099 L22.6481823,143.746099 L21.3401823,145.090099 L21.3401823,146.590099 L20.4161823,146.590099 Z M27.2201823,146.590099 L27.2201823,140.386099 L28.1441823,140.386099 L28.1441823,145.294099 L31.8281823,140.386099 L32.7281823,140.386099 L32.7281823,146.590099 L31.8041823,146.590099 L31.8041823,141.682099 L28.1081823,146.590099 L27.2201823,146.590099 Z" id="Химки" fill="#251914" transform="translate(13.966182, 142.390099) scale(-1, -1) rotate(58.000000) translate(-13.966182, -142.390099) "></path>
                <path d="M24.8738971,203 L14.0538045,152.248077 C10.1173459,139.888357 11.8395465,127.880684 19.2204064,116.225059 C26.6012664,104.569434 42.5277976,78.8277474 67,39" id="Path-5" stroke="#DBE0E1" stroke-width="3" stroke-dasharray="4" transform="translate(39.500000, 121.000000) scale(1, -1) translate(-39.500000, -121.000000) "></path>
                <polygon id="Path-7" stroke="#979797" opacity="0.699999988" transform="translate(150.500000, 145.500000) scale(1, -1) translate(-150.500000, -145.500000) " points="219 208 171.187302 208 171.187302 187.402667 134.417283 187.402667 82 116.920122 125.779247 83 162.310418 132.558615 180.362298 120.340234 219 173.577655"></polygon>
                <polygon id="Path-7" stroke="#979797" opacity="0.200000003" transform="translate(101.500000, 128.000000) scale(1, -1) translate(-101.500000, -128.000000) " points="75.8636364 174 172 174 172 153.194585 135.385565 153.194585 83.1900724 82 42.9892577 113.590253 31 138.509961 46.5649351 160.725588 61.00968 151.634797"></polygon>
                <path id="Path-6" d="M32.9190082,176.472985 L32.4239992,177.264999 C32.277644,177.499168 31.9691688,177.570354 31.7350005,177.423999 C31.5008323,177.277644 31.4296457,176.969169 31.5760008,176.735001 L32.0710099,175.942986 L28.6790166,173.82299 L37.2649995,168.576001 L36.3110014,178.592981 L32.9190082,176.472985 Z" fill="#979797" fill-rule="nonzero"></path>
            </g>
        </g>
    </g>
</svg>