<!-- нужно добавить в svg тег - xmlns:xlink="http://www.w3.org/1999/xlink"-->
<svg xmlns:xlink="http://www.w3.org/1999/xlink" xmlns="http://www.w3.org/2000/svg" width="388" height="380" class="BldScheme" viewBox="0 0 388 380"><path fill="#81818C" d="M385 129h-69V95h10V71h-26v-3h-28v3h-64v-3h-28v3h-64v-3H88v3H62v23h10v35h-3v29h3v64h-3v29h3v35H62v25h41v66H70v3H20v-3H0v-94h3v-45H0v-96h3V97H0V0h53v6h48V0h61v3h64V0h61v6h48V0h53v113h-3z"/><g fill="#FFF"><path d="M70 34H53v3H37v65h9v-8h14V69h26v-3h15V8H70z"/><path d="M60 333v10H37v-65h9v8h14v27h41v62H88v-32H71v-10z"/><path d="M5 251v-15H2v-57h26v-9h7v67h32v14z"/><path d="M160 28V2h-57v64h13V37h14v-3h36v3h3v-9z"/><path d="M335 37v-3h-17V8h-31v58h15v3h26v26h12v-3h11V37z"/><path d="M228 2v26h-9v9h3v-3h36v3h14v29h13V2z"/></g><path fill="#81818C" d="M42.9 72.8l1.7-1.6c1 1.2 2.1 1.8 3.7 1.8 1.3 0 2.4-.8 2.4-2.1 0-1.4-1.3-2.2-3.2-2.2h-1.2l-.4-1.5 3.8-4h-6V61h9.2v1.8l-3.9 4c2.2.4 4.1 1.5 4.1 4 0 2.6-2 4.4-4.9 4.4-2.4 0-4.2-1-5.3-2.4z"/><path fill="#81818C" d="M46.6 308.4l-2.6.7-.5-2 3.8-1.2H49V320h-2.4v-11.6z"/><path fill="#81818C" d="M335.9 73.8c-1.1-1.1-1.8-2.6-1.8-5.4 0-4.3 2-7.6 6-7.6 1.9 0 3.1.5 4.3 1.5l-1.3 2c-1-.8-1.8-1.3-3-1.3-2.1 0-3.3 1.9-3.4 4.4.7-.7 1.7-1.4 3.3-1.4 2.8 0 5 1.6 5 4.5 0 2.8-2.3 4.7-5.3 4.7-1.7 0-3-.5-3.8-1.4zm6.6-3.3c0-1.4-1.1-2.4-2.9-2.4s-2.8 1.1-2.8 2.5 1.1 2.5 2.9 2.5c1.7 0 2.8-1 2.8-2.6z"/><path fill="#81818C" d="M149.2 22.9h-7l-.5-1.8 7.8-9.2h2.1v9h2v2h-2V26h-2.4v-3.1zm0-2v-5.6l-4.6 5.5h4.6z"/><path fill="#81818C" d="M235 24.1l1.5-1.8c1 1 2.3 1.7 3.6 1.7 1.6 0 2.7-1 2.7-2.5 0-1.4-1.2-2.3-2.9-2.3a6 6 0 0 0-2.5.6l-1.5-1 .4-6.8h8.3v2.2h-6.2l-.2 3.3a6 6 0 0 1 2.2-.4c2.7 0 4.9 1.4 4.9 4.4 0 2.9-2.1 4.7-5.2 4.7-2.2 0-3.8-.8-5.2-2.1z"/><path fill="#81818C" d="M16 195l4.8-4c2-1.7 2.6-2.6 2.6-3.8 0-1.4-1-2.2-2.2-2.2s-2.2.7-3.3 2.1l-1.7-1.4c1.3-1.8 2.6-2.9 5.1-2.9 2.8 0 4.7 1.7 4.7 4.2 0 2.2-1.2 3.4-3.7 5.4l-2.9 2.4h6.7v2.2H16v-2z"/><g><path fill="#CA6E84" d="M241 36v33h29V39h-14v-3z"/><path fill="#CA6E84" d="M147 36v33h-29V39h14v-3z"/><path fill="#CA6E84" d="M239 36v33h-29V39h14v-3z"/><path fill="#CA6E84" d="M149 36v33h29V39h-14v-3z"/><path fill="#A6B961" d="M195 66h13V37h9V26h9V5h-31z"/><path fill="#A6B961" d="M193 66h-13V37h-9V26h-9V5h31z"/><path fill="#CA6E84" d="M353 37h33v29h-33z"/><path fill="#BBB8DB" d="M386 35h-49v-3h-17V8h17V2h49z"/><path fill="#BBB8DB" d="M2 35h49v-3h17V8H51V2H2z"/><path fill="#A6B961" d="M318 127V97h24v-3h13v7h-3v12h31v14z"/><path fill="#A6B961" d="M353 67h33v44h-32v-8h3V92h-4z"/><path fill="#A6B961" d="M2 37h33v44H2z"/><path fill="#A6B961" d="M35 127H5V95H2V83h33z"/><path fill="#CA6E84" d="M70 96H48v8H37v23h33z"/><path fill="#A6B961" d="M37 189h33v-29h-3v-15H37v14h3v11h-3z"/><path fill="#BBB8DB" d="M26 177H2v-33h3v-15h62v14H35v18h3v7H26z"/><path fill="#A6B961" d="M2 299h33v44H2z"/><path fill="#A6B961" d="M35 253H5v32H2v12h33z"/><path fill="#CA6E84" d="M70 284H48v-8H37v-23h33z"/><path fill="#A6B961" d="M37 191h33v29h-3v15H37z"/><path fill="#A6B961" d="M53 345v33H22v-3H2v-30z"/><path fill="#CA6E84" d="M69 345v-10h-7v10h-7v33h13v-3h18v-30z"/></g>

<!--START: Flats-->
<g>

    <a class="BldScheme_link" xlink:href="/flat_single.html">
        <polygon style="fill:#C43F60;" points="60,313 101,313 101,375 68,375 68,378 22,378 22,375 2,375 2,285 5,285 5,253 70,253 
        70,284 60,284   "/>
    </a>

    <a class="BldScheme_link" xlink:href="/flat_single2.html">
        <polygon style="fill:#C43F60;" points="5,251 67,251 67,220 70,220 70,160 67,160 67,129 5,129 5,144 2,144 2,236 5,236    "/>
    </a>

    <a class="BldScheme_link" xlink:href="/flat_single.html">
        <polygon style="fill:#C43F60;" points="5,127 70,127 70,96 60,96 60,69 86,69 86,66 101,66 101,8 51,8 51,2 2,2 2,95 5,95  "/>
    </a>

    <a class="BldScheme_link" xlink:href="/flat_single2.html">
        <polygon style="fill:#C43F60;" points="103,2 103,66 118,66 118,69 178,69 178,66 193,66 193,5 160,5 160,2    "/>
    </a>

</g>
<!--END: Flats-->


</svg>