<svg class="BldScheme" xmlns="http://www.w3.org/2000/svg" width="1086" height="800" viewBox="0 0 1086 800">
    <a class="BldScheme_link" xlink:href="/flat_single.html" data-params='{"title":"2-комнатная", "num": "322", "house": 5, "floor": 10, "area": 52.5, "price": 4000000 }'>
        <g id="_4k_2fl_1s_8" data-name="4k_2fl_1s_8">
            <polygon points="498 62 498 258 427 258 427 268 240 268 240 62 328 62 328 58 410 58 410 62 498 62" fill="#946947"/>
            <path d="M358.7,170.872l9.638-8.2c3.84-3.239,5.24-5.039,5.24-7.559a4.2,4.2,0,0,0-4.52-4.359c-2.559,0-4.319,1.4-6.479,4.2l-3.479-2.72c2.679-3.758,5.319-5.879,10.318-5.879,5.479,0,9.239,3.36,9.239,8.439,0,4.4-2.36,6.759-7.279,10.839l-5.759,4.8h13.318v4.319H358.7Z" fill="#251914"/>
        </g>
    </a>
    <a class="BldScheme_link" xlink:href="/flat_single.html" data-params='{"title":"2-комнатная", "num": "322", "house": 5, "floor": 10, "area": 52.5, "price": 4000000 }'>
        <g id="_4k_2fl_1s_7" data-name="4k_2fl_1s_7">
            <polygon points="14 326 234 326 234 62 99 62 99 141 10 141 10 235 14 235 14 326" fill="#946947"/>
            <path d="M79.7,201.872l9.638-8.2c3.84-3.239,5.24-5.039,5.24-7.559a4.2,4.2,0,0,0-4.52-4.359c-2.559,0-4.319,1.4-6.479,4.2l-3.479-2.72c2.679-3.758,5.319-5.879,10.318-5.879,5.479,0,9.239,3.36,9.239,8.439,0,4.4-2.36,6.759-7.279,10.839l-5.759,4.8H99.937v4.319H79.7Z" fill="#251914"/>
        </g>
    </a>
    <a class="BldScheme_link" xlink:href="/flat_single.html" data-params='{"title":"2-комнатная", "num": "322", "house": 5, "floor": 10, "area": 52.5, "price": 4000000 }'>
        <g id="_4k_2fl_1s_6" data-name="4k_2fl_1s_6">
            <polygon points="322 332 322 580 99 580 99 501 14 501 14 332 322 332" fill="#1c355e"/>
            <path d="M79.36,469.312l3.439-3.2a9.131,9.131,0,0,0,7.359,3.68c2.759,0,4.839-1.68,4.839-4.319,0-2.76-2.519-4.32-6.439-4.32H86.279l-.8-3.08,7.559-8.038H80.919v-4.279H99.437v3.679l-7.8,8c4.439.639,8.238,2.92,8.238,7.959,0,5.159-4,8.837-9.8,8.837A13.272,13.272,0,0,1,79.36,469.312Z" fill="#251914"/>
        </g>
    </a>
    <a class="BldScheme_link" xlink:href="/flat_single.html" data-params='{"title":"2-комнатная", "num": "322", "house": 5, "floor": 10, "area": 52.5, "price": 4000000 }'>
        <g id="_4k_2fl_1s_5" data-name="4k_2fl_1s_5">
            <polygon points="328 332 498 332 498 348 586 348 586 556 498 556 498 560 416 560 416 556 328 556 328 332" fill="#946947"/>
            <path d="M444.7,475.872l9.638-8.2c3.84-3.239,5.24-5.039,5.24-7.559a4.2,4.2,0,0,0-4.52-4.359c-2.559,0-4.319,1.4-6.479,4.2l-3.479-2.72c2.679-3.758,5.319-5.879,10.318-5.879,5.479,0,9.239,3.36,9.239,8.439,0,4.4-2.36,6.759-7.279,10.839l-5.759,4.8h13.318v4.319H444.7Z" fill="#251914"/>
        </g>
    </a>
    <a class="BldScheme_link" xlink:href="/flat_single.html" data-params='{"title":"2-комнатная", "num": "322", "house": 5, "floor": 10, "area": 52.5, "price": 4000000 }'>
        <g id="_4k_2fl_1s_4" data-name="4k_2fl_1s_4">
            <polygon points="762 560 762 342 690 342 690 332 644 332 644 348 592 348 592 556 680 556 680 560 762 560" fill="#d7d1c1"/>
            <path d="M719.2,456.555l-5.039,1.4-1.04-4,7.519-2.4h3.439v28.195H719.2Z" fill="#251914"/>
        </g>
    </a>
    <a class="BldScheme_link" xlink:href="/flat_single.html" data-params='{"title":"2-комнатная", "num": "322", "house": 5, "floor": 10, "area": 52.5, "price": 4000000 }'>
        <g id="_4k_2fl_1s_3" data-name="4k_2fl_1s_3">
            <polygon points="768 332 768 580 991 580 991 501 1076 501 1076 332 768 332" fill="#1c355e"/>
            <path d="M988.56,469.312l3.439-3.2a9.13,9.13,0,0,0,7.359,3.68c2.759,0,4.839-1.68,4.839-4.319,0-2.76-2.52-4.32-6.439-4.32h-2.279l-.8-3.08,7.558-8.038H990.119v-4.279h18.517v3.679l-7.8,8c4.44.639,8.239,2.92,8.239,7.959,0,5.159-4,8.837-9.8,8.837A13.271,13.271,0,0,1,988.56,469.312Z" fill="#251914"/>
        </g>
    </a>
    <a class="BldScheme_link" xlink:href="/flat_single.html" data-params='{"title":"2-комнатная", "num": "322", "house": 5, "floor": 10, "area": 52.5, "price": 4000000 }'>
        <g id="_4k_2fl_1s_2" data-name="4k_2fl_1s_2">
            <polygon points="1076 326 856 326 856 62 991 62 991 141 1076 141 1076 326" fill="#946947"/>
            <path d="M988.9,201.872l9.639-8.2c3.839-3.239,5.239-5.039,5.239-7.559a4.2,4.2,0,0,0-4.519-4.359c-2.56,0-4.32,1.4-6.479,4.2l-3.48-2.72c2.68-3.758,5.32-5.879,10.319-5.879,5.479,0,9.238,3.36,9.238,8.439,0,4.4-2.359,6.759-7.278,10.839l-5.76,4.8h13.318v4.319H988.9Z" fill="#251914"/>
        </g>
    </a>
    <a class="BldScheme_link" xlink:href="/flat_single.html" data-params='{"title":"2-комнатная", "num": "322", "house": 5, "floor": 10, "area": 52.5, "price": 4000000 }'>
        <g id="_4k_2fl_1s_1" data-name="4k_2fl_1s_1">
            <polygon points="639 268 850 268 850 58 768 58 768 62 639 62 639 268" fill="#946947"/>
            <path d="M709.7,170.872l9.638-8.2c3.84-3.239,5.24-5.039,5.24-7.559a4.2,4.2,0,0,0-4.52-4.359c-2.559,0-4.319,1.4-6.479,4.2l-3.479-2.72c2.679-3.758,5.319-5.879,10.318-5.879,5.479,0,9.239,3.36,9.239,8.439,0,4.4-2.36,6.759-7.279,10.839l-5.759,4.8h13.318v4.319H709.7Z" fill="#251914"/>
        </g>
    </a>
    <g id="_4k_2fl_1s" data-name="4k_2fl_1s" data-section-num="1">
        <g id="d">
            <line x1="538.5" y1="263.5" x2="503.5" y2="263.5" fill="none" stroke="#251914" stroke-miterlimit="10"/>
            <line x1="538.5" y1="255.5" x2="503.5" y2="255.5" fill="none" stroke="#251914" stroke-miterlimit="10"/>
            <line x1="538.5" y1="246.5" x2="503.5" y2="246.5" fill="none" stroke="#251914" stroke-miterlimit="10"/>
            <line x1="538.5" y1="238.5" x2="503.5" y2="238.5" fill="none" stroke="#251914" stroke-miterlimit="10"/>
            <line x1="538.5" y1="229.5" x2="503.5" y2="229.5" fill="none" stroke="#251914" stroke-miterlimit="10"/>
            <line x1="538.5" y1="220.5" x2="521.5" y2="220.5" fill="none" stroke="#251914" stroke-miterlimit="10"/>
            <line x1="515.5" y1="220.5" x2="503.5" y2="220.5" fill="none" stroke="#251914" stroke-miterlimit="10"/>
            <line x1="538.5" y1="211.5" x2="503.5" y2="229.5" fill="none" stroke="#251914" stroke-miterlimit="10"/>
            <line x1="538.5" y1="208.5" x2="503.5" y2="226.5" fill="none" stroke="#251914" stroke-miterlimit="10"/>
            <g>
                <line x1="520.5" y1="263.5" x2="520.5" y2="222.584" fill="none" stroke="#251914" stroke-miterlimit="10"/>
                <polygon points="524.59 225.898 523.857 226.58 520.501 222.968 517.144 226.58 516.411 225.898 520.501 221.5 524.59 225.898" fill="#251914"/>
            </g>
            <line x1="530.5" y1="212.5" x2="503.5" y2="212.5" fill="none" stroke="#251914" stroke-miterlimit="10"/>
            <line x1="538.5" y1="204.5" x2="503.5" y2="204.5" fill="none" stroke="#251914" stroke-miterlimit="10"/>
            <line x1="538.5" y1="195.5" x2="503.5" y2="195.5" fill="none" stroke="#251914" stroke-miterlimit="10"/>
            <line x1="538.5" y1="187.5" x2="503.5" y2="187.5" fill="none" stroke="#251914" stroke-miterlimit="10"/>
            <line x1="538.5" y1="178.5" x2="503.5" y2="178.5" fill="none" stroke="#251914" stroke-miterlimit="10"/>
            <polyline points="503.5 170.5 538.5 170.5 538.5 175.5" fill="none" stroke="#251914" stroke-miterlimit="10"/>
            <g>
                <line x1="520.5" y1="217.5" x2="520.5" y2="171.584" fill="none" stroke="#251914" stroke-miterlimit="10"/>
                <polygon points="524.59 174.898 523.857 175.58 520.501 171.968 517.144 175.58 516.411 174.898 520.501 170.5 524.59 174.898" fill="#251914"/>
            </g>
            <line x1="633.5" y1="263.5" x2="598.5" y2="263.5" fill="none" stroke="#251914" stroke-miterlimit="10"/>
            <line x1="633.5" y1="255.5" x2="598.5" y2="255.5" fill="none" stroke="#251914" stroke-miterlimit="10"/>
            <line x1="633.5" y1="246.5" x2="598.5" y2="246.5" fill="none" stroke="#251914" stroke-miterlimit="10"/>
            <line x1="633.5" y1="238.5" x2="598.5" y2="238.5" fill="none" stroke="#251914" stroke-miterlimit="10"/>
            <line x1="633.5" y1="229.5" x2="598.5" y2="229.5" fill="none" stroke="#251914" stroke-miterlimit="10"/>
            <line x1="633.5" y1="220.5" x2="598.5" y2="220.5" fill="none" stroke="#251914" stroke-miterlimit="10"/>
            <g>
                <line x1="615.5" y1="262.416" x2="615.5" y2="178.5" fill="none" stroke="#251914" stroke-miterlimit="10"/>
                <polygon points="619.59 259.102 618.857 258.42 615.501 262.032 612.144 258.42 611.411 259.102 615.501 263.5 619.59 259.102" fill="#251914"/>
            </g>
            <line x1="633.5" y1="212.5" x2="598.5" y2="212.5" fill="none" stroke="#251914" stroke-miterlimit="10"/>
            <line x1="633.5" y1="204.5" x2="598.5" y2="204.5" fill="none" stroke="#251914" stroke-miterlimit="10"/>
            <line x1="633.5" y1="195.5" x2="598.5" y2="195.5" fill="none" stroke="#251914" stroke-miterlimit="10"/>
            <line x1="633.5" y1="187.5" x2="598.5" y2="187.5" fill="none" stroke="#251914" stroke-miterlimit="10"/>
            <line x1="633.5" y1="178.5" x2="598.5" y2="178.5" fill="none" stroke="#251914" stroke-miterlimit="10"/>
            <rect x="556.5" y="189.5" width="31" height="60" fill="none" stroke="#251914" stroke-miterlimit="10"/>
            <line x1="556.5" y1="189.5" x2="587.5" y2="249.5" fill="none" stroke="#251914" stroke-miterlimit="10"/>
            <line x1="556.5" y1="249.5" x2="587.5" y2="189.5" fill="none" stroke="#251914" stroke-miterlimit="10"/>
            <line x1="556.5" y1="258.5" x2="588.5" y2="258.5" fill="none" stroke="#251914" stroke-miterlimit="10"/>
            <polyline points="538.5 170.5 598.5 170.5 598.5 175.5" fill="none" stroke="#251914" stroke-miterlimit="10"/>
            <line x1="503.5" y1="287.5" x2="513.5" y2="297.5" fill="none" stroke="#251914" stroke-miterlimit="10"/>
            <line x1="503.5" y1="326.5" x2="519.5" y2="310.5" fill="none" stroke="#251914" stroke-miterlimit="10"/>
            <line x1="633.5" y1="281.5" x2="623.5" y2="291.5" fill="none" stroke="#251914" stroke-miterlimit="10"/>
            <line x1="633.5" y1="320.5" x2="617.5" y2="304.5" fill="none" stroke="#251914" stroke-miterlimit="10"/>
            <line x1="747.5" y1="326.5" x2="757.5" y2="316.5" fill="none" stroke="#251914" stroke-miterlimit="10"/>
            <line x1="695.5" y1="326.5" x2="711.5" y2="310.5" fill="none" stroke="#251914" stroke-miterlimit="10"/>
            <line x1="742.5" y1="326.5" x2="726.5" y2="310.5" fill="none" stroke="#251914" stroke-miterlimit="10"/>
            <line x1="756.5" y1="268.5" x2="740.5" y2="252.5" fill="none" stroke="#251914" stroke-miterlimit="10"/>
            <line x1="796.5" y1="108.5" x2="812.5" y2="92.5" fill="none" stroke="#251914" stroke-miterlimit="10"/>
            <line x1="691.5" y1="245.5" x2="707.5" y2="229.5" fill="none" stroke="#251914" stroke-miterlimit="10"/>
            <line x1="694.5" y1="218.5" x2="710.5" y2="202.5" fill="none" stroke="#251914" stroke-miterlimit="10"/>
            <line x1="771.5" y1="218.5" x2="787.5" y2="202.5" fill="none" stroke="#251914" stroke-miterlimit="10"/>
            <line x1="788.5" y1="226.5" x2="804.5" y2="242.5" fill="none" stroke="#251914" stroke-miterlimit="10"/>
            <line x1="871.5" y1="291.5" x2="855.5" y2="275.5" fill="none" stroke="#251914" stroke-miterlimit="10"/>
            <line x1="931.5" y1="153.5" x2="915.5" y2="137.5" fill="none" stroke="#251914" stroke-miterlimit="10"/>
            <line x1="954.5" y1="263.5" x2="938.5" y2="247.5" fill="none" stroke="#251914" stroke-miterlimit="10"/>
            <line x1="938.5" y1="231.5" x2="954.5" y2="215.5" fill="none" stroke="#251914" stroke-miterlimit="10"/>
            <line x1="923.5" y1="195.5" x2="907.5" y2="179.5" fill="none" stroke="#251914" stroke-miterlimit="10"/>
            <line x1="923.5" y1="253.5" x2="907.5" y2="237.5" fill="none" stroke="#251914" stroke-miterlimit="10"/>
            <line x1="1044.5" y1="195.5" x2="1028.5" y2="179.5" fill="none" stroke="#251914" stroke-miterlimit="10"/>
            <line x1="772.5" y1="455.5" x2="790.5" y2="437.5" fill="none" stroke="#251914" stroke-miterlimit="10"/>
            <line x1="800.5" y1="356.5" x2="784.5" y2="372.5" fill="none" stroke="#251914" stroke-miterlimit="10"/>
            <line x1="833.5" y1="331.5" x2="817.5" y2="347.5" fill="none" stroke="#251914" stroke-miterlimit="10"/>
            <line x1="871.5" y1="454.5" x2="887.5" y2="438.5" fill="none" stroke="#251914" stroke-miterlimit="10"/>
            <line x1="852.5" y1="477.5" x2="868.5" y2="461.5" fill="none" stroke="#251914" stroke-miterlimit="10"/>
            <line x1="888.5" y1="380.5" x2="872.5" y2="396.5" fill="none" stroke="#251914" stroke-miterlimit="10"/>
            <line x1="873.5" y1="504.5" x2="889.5" y2="520.5" fill="none" stroke="#251914" stroke-miterlimit="10"/>
            <line x1="908.5" y1="480.5" x2="924.5" y2="464.5" fill="none" stroke="#251914" stroke-miterlimit="10"/>
            <line x1="908.5" y1="409.5" x2="924.5" y2="393.5" fill="none" stroke="#251914" stroke-miterlimit="10"/>
            <line x1="1044.5" y1="464.5" x2="1028.5" y2="480.5" fill="none" stroke="#251914" stroke-miterlimit="10"/>
            <line x1="643.5" y1="391.5" x2="661.5" y2="373.5" fill="none" stroke="#251914" stroke-miterlimit="10"/>
            <line x1="671.5" y1="398.5" x2="655.5" y2="414.5" fill="none" stroke="#251914" stroke-miterlimit="10"/>
            <line x1="676.5" y1="331.5" x2="660.5" y2="347.5" fill="none" stroke="#251914" stroke-miterlimit="10"/>
            <line x1="708.5" y1="348.5" x2="724.5" y2="364.5" fill="none" stroke="#251914" stroke-miterlimit="10"/>
            <line x1="681.5" y1="398.5" x2="697.5" y2="414.5" fill="none" stroke="#251914" stroke-miterlimit="10"/>
            <line x1="718.5" y1="524.5" x2="734.5" y2="508.5" fill="none" stroke="#251914" stroke-miterlimit="10"/>
            <line x1="432.5" y1="331.5" x2="448.5" y2="347.5" fill="none" stroke="#251914" stroke-miterlimit="10"/>
            <line x1="421.5" y1="379.5" x2="437.5" y2="395.5" fill="none" stroke="#251914" stroke-miterlimit="10"/>
            <line x1="380.5" y1="374.5" x2="396.5" y2="358.5" fill="none" stroke="#251914" stroke-miterlimit="10"/>
            <line x1="408.5" y1="379.5" x2="392.5" y2="395.5" fill="none" stroke="#251914" stroke-miterlimit="10"/>
            <line x1="532.5" y1="371.5" x2="516.5" y2="355.5" fill="none" stroke="#251914" stroke-miterlimit="10"/>
            <line x1="505.5" y1="379.5" x2="521.5" y2="395.5" fill="none" stroke="#251914" stroke-miterlimit="10"/>
            <line x1="459.5" y1="523.5" x2="443.5" y2="507.5" fill="none" stroke="#251914" stroke-miterlimit="10"/>
            <line x1="317.5" y1="455.5" x2="299.5" y2="437.5" fill="none" stroke="#251914" stroke-miterlimit="10"/>
            <line x1="289.5" y1="356.5" x2="305.5" y2="372.5" fill="none" stroke="#251914" stroke-miterlimit="10"/>
            <line x1="256.5" y1="331.5" x2="272.5" y2="347.5" fill="none" stroke="#251914" stroke-miterlimit="10"/>
            <line x1="218.5" y1="454.5" x2="202.5" y2="438.5" fill="none" stroke="#251914" stroke-miterlimit="10"/>
            <line x1="237.5" y1="477.5" x2="221.5" y2="461.5" fill="none" stroke="#251914" stroke-miterlimit="10"/>
            <line x1="201.5" y1="380.5" x2="217.5" y2="396.5" fill="none" stroke="#251914" stroke-miterlimit="10"/>
            <line x1="206.5" y1="485.5" x2="190.5" y2="501.5" fill="none" stroke="#251914" stroke-miterlimit="10"/>
            <line x1="181.5" y1="480.5" x2="165.5" y2="464.5" fill="none" stroke="#251914" stroke-miterlimit="10"/>
            <line x1="181.5" y1="409.5" x2="165.5" y2="393.5" fill="none" stroke="#251914" stroke-miterlimit="10"/>
            <line x1="45.5" y1="464.5" x2="61.5" y2="480.5" fill="none" stroke="#251914" stroke-miterlimit="10"/>
            <line x1="218.5" y1="296.5" x2="234.5" y2="280.5" fill="none" stroke="#251914" stroke-miterlimit="10"/>
            <line x1="158.5" y1="153.5" x2="174.5" y2="137.5" fill="none" stroke="#251914" stroke-miterlimit="10"/>
            <line x1="135.5" y1="263.5" x2="151.5" y2="247.5" fill="none" stroke="#251914" stroke-miterlimit="10"/>
            <line x1="151.5" y1="231.5" x2="135.5" y2="215.5" fill="none" stroke="#251914" stroke-miterlimit="10"/>
            <line x1="166.5" y1="195.5" x2="182.5" y2="179.5" fill="none" stroke="#251914" stroke-miterlimit="10"/>
            <line x1="166.5" y1="253.5" x2="182.5" y2="237.5" fill="none" stroke="#251914" stroke-miterlimit="10"/>
            <line x1="45.5" y1="195.5" x2="61.5" y2="179.5" fill="none" stroke="#251914" stroke-miterlimit="10"/>
            <line x1="389.5" y1="268.5" x2="405.5" y2="252.5" fill="none" stroke="#251914" stroke-miterlimit="10"/>
            <line x1="334.5" y1="220.5" x2="350.5" y2="204.5" fill="none" stroke="#251914" stroke-miterlimit="10"/>
            <line x1="356.5" y1="108.5" x2="372.5" y2="92.5" fill="none" stroke="#251914" stroke-miterlimit="10"/>
            <line x1="444.5" y1="251.5" x2="428.5" y2="235.5" fill="none" stroke="#251914" stroke-miterlimit="10"/>
            <line x1="417.5" y1="220.5" x2="433.5" y2="204.5" fill="none" stroke="#251914" stroke-miterlimit="10"/>
            <line x1="318.5" y1="220.5" x2="302.5" y2="204.5" fill="none" stroke="#251914" stroke-miterlimit="10"/>
            <line x1="307.5" y1="240.5" x2="291.5" y2="224.5" fill="none" stroke="#251914" stroke-miterlimit="10"/>
        </g>
        <g id="s">
            <g>
                <polygon points="538 181 538 258 538 264 557 264 557 258 544 258 544 181 593 181 593 258 588 258 588 264 599 264 599 258 599 181 599 175 538 175 538 181" fill="#251914"/>
                <path d="M1084,131H997V52H856V48H762v4H633v53H504V52H416V48H322v4H93v79H0V241H4V511H89v79H328V566h82v4h94v-4H674v4h88v20h239V511h85V131Zm-34,6h30v98h-2V139h-28Zm30,166h-2V248h2ZM932,54h23v2H932Zm0,4h23v2H932Zm-33-4h23v2H899Zm0,4h23v2H899ZM783,50h56v2H783Zm0,4h56v2H783Zm-43,0v2H683V54Zm0,4v2H683V58Zm-90-4h24v2H650Zm0,4h24v2H650Zm38,145H658v-9h30Zm-34,0H639v-9h15ZM540,107h57v2H540ZM488,54v2H465V54Zm0,4v2H465V58Zm-56-4h24v2H432Zm0,4h24v2H432Zm-90-8h55v2H342Zm0,4h55v2H342Zm-92,0h57v2H250Zm0,4h57v2H250Zm11,139h27v9H261Zm-4,9H240v-9h17ZM175,54h23v2H175Zm0,4h23v2H175Zm-66-4h57v2H109Zm0,4h57v2H109ZM44,172H42V157h2ZM8,224H6V137H40v2H8ZM2,133H40v2H4v89H2ZM12,303H10V248h2ZM6,248H8v55H6Zm6,146H10V337h2ZM6,337H8v57H6ZM40,509H6V425H8v82H40Zm0-4H10V425h2v78H40Zm2-4V486h2v15Zm92,87H110v-2h24Zm0-4H110v-2h24Zm65,4H142v-2h57Zm0-4H142v-2h57Zm113,4H256v-2h56Zm0-4H256v-2h56Zm37-194h28v9H349Zm-4,9H328v-9h17Zm51,165H339v-2h57Zm0-4H339v-2h57Zm87,8H425v-2h58Zm0-4H425v-2h58Zm91,0H517v-2h57Zm0-4H517v-2h57Zm-9-168H536v-9h29Zm4-9h17v9H569Zm96,181H608v-2h57Zm0-4H608v-2h57Zm90,8H699v-2h56Zm0-4H699v-2h56Zm79,24H778v-2h56Zm0-4H778v-2h56Zm114,4H891v-2h57Zm0-4H891v-2h57Zm32,4H956v-2h24Zm0-4H956v-2h24Zm66-83V486h2v15Zm32,0V425h2v80h-30v-2h28Zm0-164h2v57h-2Zm6,172h-34v-2h32V425h2Zm0-115h-2V337h2ZM925,294h10v16H925Zm0,20h10v12H925Zm10-44v20H921v36H856V303h-6v23H833v6h7v49h29v-4H844V332h46v45h-2v4h15v5h6V332h167v87H909V409h-6v46h6V423h135v42h6V425h26v76h-26V484h-6v17H909V480h-6v21h-4v4h92v75H857V505h17v-4h-2V484h-4v17H853v79H768V459h5v-4h-5V408h32v47h-8v4h76v3h4v-8h-4v1H804V408h21v13h43v12h4V404H804V377h-4v27H768V332h32v25h4V326H762v10H748V326h-6v10H696V326H676v6h14v10h15v7h4v-7h53v31H709v-2h-4v24h-2v4h6V377h53V524H741v6h21v30H680V530h39v-6H680V399h2v-4H671v4h3V556H592V421h52V399h4v-4h-4v-4h-4v13H592V348h48v24h4V332h5v-6H639v-6h-6v12h5v10H592V326h-6v16H504V326H462v6h36v16h34v3h4v-3h50v31H536v-8h-4v5h-4v4h4v16h54V556H504V380h2v-4H446v4h52V523H459v6h39v31H416V529h21v-6H414V380h8v-4H408v4h2V556H328V403h53V380h4v-4h-4v-2h-4v12H328V332h49v22h4V332h52v-6H286v31h4V332h32v72H290V377h-4v27H218v29h4V421h43V408h21v47H222v-1h-4v8h4v-3h76v-4h-8V408h32v47h-5v4h5V580H237V501H222V487h-4v14h-2v4h17v75H99V505h92v-4h-4V480h-6v21H46V484H40v17H14V425H40v40h6V423H181v32h6V409h-6v10H14V332H181v54h6v-5h15v-4h-2V332h46v45H221v4h29V332h7v-6H240V308h-6v18H169V290H155V270h-4v56H14V241H151v7h4V231h-4v4H46V195H40v40H10V141H40v33h6V141H151v66h4V157h4v-4h-4V137H99V62H234v91H181v4h1v23h4V157h48v57H186V199h-4v39h4v-7h48v32H186v-3h-4v7h52v14h6v-7H390v-6H292V247h-4v21H240V210h48v15h4v-1h4v-4h-4V193H240V62h82V220h-4v4h17v-4h-9V93h23V87H328V58h82V87H372v6h38V220H358v4h60v-4h-2V62h82V199H444v21h-5v4h5v6h4V217h50v41H448v-7h-4v7H427v10h-8v6h14V264h65v24h6V111H633V282h6v-8h89v-6H692V245h-4v23H639V207h49v17h4v-2h3v-4h-3V173h-4v17H639V62H762V218H717v4h55v-4h-4V93h21V87H768V58h82V87H812v6h38V218H794v4h56v46H834V254h5v-4H808v-8h-4v26H756v6h94v2h6v-9h52v-7h-4v3H856V231h48v7h4V199h-4v15H856V157h48v23h4V157h1v-4H856V62H991v75H935v16h-4v4h4v50h4V141h105v33h6V141h26v94h-26V195h-6v40H939v-4h-4v17h4v-7h137v85H939V270Zm-41,77h9v30h-9Zm0-4V332h9v11Zm-50,65h24v9H844Zm-4,9H829v-9h11ZM757,526v2H743v-2ZM611,408h29v9H611Zm-4,9H592v-9h15ZM420,527v-2h15v2ZM261,417H250v-9h11Zm-39-9h24v9H222Zm-57-98H155V294h10Zm0,4v12H155V314Zm31,63h-9V347h9Zm0-34h-9V332h9Zm24-116H186v-9h34Zm4-9h10v9H224ZM332,91V89h15v2ZM448,203h29v10H448Zm33,0h17v10H481ZM772,91V89h15v2Zm98,127h34v9H870Zm-4,9H856v-9h10Zm-36,41H808V254h22Zm218-96h-2V157h2Zm36,131h-2V248h2Zm-2-68V135h-32v-2h34V235Z" fill="#251914"/>
            </g>
        </g>
    </g>
    <g id="tab">
        <rect x="453" y="740" width="180" height="60" fill="#b3baba"/>
        <g>
            <path d="M473.365,769.79a9.918,9.918,0,0,1,10.108-10.136,10.217,10.217,0,0,1,7.672,3.052l-2.212,2.548a7.8,7.8,0,0,0-5.488-2.436c-3.752,0-6.468,3.079-6.468,6.972,0,3.836,2.716,6.972,6.468,6.972,2.408,0,3.948-.98,5.628-2.548l2.212,2.24a10.113,10.113,0,0,1-7.952,3.472A9.871,9.871,0,0,1,473.365,769.79Z" fill="#fff"/>
            <path d="M494.9,759.99h14.532v3.08H498.34v5.1h9.828v3.08H498.34v5.264h11.228v3.08H494.9Z" fill="#fff"/>
            <path d="M513.657,759.99H517.1v9.856l9.324-9.856h4.228l-8.148,8.428,8.512,11.172h-4.172l-6.692-8.82-3.052,3.136v5.684h-3.444Z" fill="#fff"/>
            <path d="M549.1,779.59H533.957v-19.6H537.4v16.491h9.184V759.99H550v16.491h2.437l-.477,7.309H549.1Z" fill="#fff"/>
            <path d="M555.516,759.99H558.9V774.3l9.912-14.308h3.22v19.6h-3.388V765.31l-9.884,14.28h-3.248Z" fill="#fff"/>
            <path d="M580.94,772.226a5.9,5.9,0,0,1-4.676-5.992c0-3.808,2.772-6.244,7.308-6.244h8.708v19.6h-3.416v-6.777h-4.34l-4.872,6.777h-4.06Zm7.924-2.408V763.1h-5.012c-2.576,0-4.116,1.232-4.116,3.36,0,2.044,1.6,3.36,4.06,3.36Z" fill="#fff"/>
            <path d="M608.183,763.35l-3.528.98-.728-2.8,5.264-1.68H611.6v19.74h-3.416Z" fill="#fff"/>
        </g>
        <polyline points="1 632 1 688 1085 688 1085 632" fill="none" stroke="#b3baba" stroke-miterlimit="10" stroke-width="2"/>
        <line x1="543" y1="741" x2="543" y2="688" fill="none" stroke="#b3baba" stroke-miterlimit="10" stroke-width="2"/>
    </g>
</svg>
