<?xml version="1.0" encoding="UTF-8"?>
<svg width="19px" height="19px" viewBox="0 0 19 19" version="1.1" xmlns="http://www.w3.org/2000/svg" xmlns:xlink="http://www.w3.org/1999/xlink">
    <!-- Generator: sketchtool 51.2 (57519) - http://www.bohemiancoding.com/sketch -->
    <title>571D15E1-E0D3-4BC7-8CBA-1CE272D4B2B0</title>
    <desc>Created with sketchtool.</desc>
    <defs></defs>
    <g id="Page-1" stroke="none" stroke-width="1" fill="none" fill-rule="evenodd">
        <g id="1.1-Открытое-меню" transform="translate(-1388.000000, -33.000000)" fill="#251914">
            <g id="Group-2" transform="translate(0.000000, -1.000000)">
                <g id="Меню" transform="translate(858.000000, 0.000000)">
                    <g id="Group-3" transform="translate(497.000000, 1.000000)">
                        <path d="M41.563362,41.563362 L41.563362,31 L43.5439915,31 L43.5439915,41.563362 L54.1073536,41.563362 L54.1073536,43.5439915 L43.5439915,43.5439915 L43.5439915,54.1073536 L41.563362,54.1073536 L41.563362,43.5439915 L31,43.5439915 L31,41.563362 L41.563362,41.563362 Z" id="Rectangle-16-Copy" transform="translate(42.553677, 42.553677) rotate(45.000000) translate(-42.553677, -42.553677) "></path>
                    </g>
                </g>
            </g>
        </g>
    </g>
</svg>