<?xml version="1.0" encoding="UTF-8"?>
<svg width="11px" height="12px" viewBox="0 0 11 12" version="1.1" xmlns="http://www.w3.org/2000/svg" xmlns:xlink="http://www.w3.org/1999/xlink">
    <!-- Generator: sketchtool 51.2 (57519) - http://www.bohemiancoding.com/sketch -->
    <title>7FD8E5B4-3864-45ED-9CF8-57F443B2220E</title>
    <desc>Created with sketchtool.</desc>
    <defs></defs>
    <g id="Page-1" stroke="none" stroke-width="1" fill="none" fill-rule="evenodd" opacity="0.702049366">
        <g id="5.0-Новости" transform="translate(-672.000000, -227.000000)" fill="#251914" fill-rule="nonzero">
            <g id="Group-3-Copy-9" transform="translate(446.000000, 227.000000)">
                <path d="M236.879647,10.565762 L234.15622,7.69437208 C234.856461,6.85052839 235.240127,5.78880034 235.240127,4.68349542 C235.240127,2.10105677 233.167527,0 230.620064,0 C228.072601,0 226,2.10105677 226,4.68349542 C226,7.26593407 228.072601,9.36699084 230.620064,9.36699084 C231.576417,9.36699084 232.487775,9.07457782 233.266958,8.5194818 L236.011075,11.4126602 C236.125773,11.5334129 236.280043,11.6 236.445361,11.6 C236.601841,11.6 236.750285,11.5395218 236.862975,11.4295615 C237.102415,11.1959976 237.110048,10.8086929 236.879647,10.565762 Z M230.620064,1.22178141 C232.503041,1.22178141 234.034893,2.77466559 234.034893,4.68349542 C234.034893,6.59232525 232.503041,8.14520942 230.620064,8.14520942 C228.737086,8.14520942 227.205234,6.59232525 227.205234,4.68349542 C227.205234,2.77466559 228.737086,1.22178141 230.620064,1.22178141 Z" id="Shape"></path>
            </g>
        </g>
    </g>
</svg>